masses:        e= 9.109e-31; ions in proton mass units:    8.000e+00  1.820e+02 ...
charges:       e=-1.602e-19; charges in elementary units:  2.000e+00  2.000e+00
thermal T (K): e= 1.160e+07 i= 1.160e+07 imp= 1.160e+07. v_0= 1.326e+07 n_0= 1.000e+20 t_0= 5.787e-06 domain= 1.000e+01
CalculateE j0=0. Ec = 0.050991
0 TS dt 0.5 time 0.
  0) species-0: charge density= -1.6023053677413e+01 z-momentum= -5.8883697213094e-20 energy=  2.4017990192310e+04
  0) species-1: charge density=  1.6019692146204e+01 z-momentum= -2.8320357521881e-18 energy=  1.2010735332228e+04
  0) species-2: charge density=  3.2061689192317e-06 z-momentum=  2.4414611711642e-24 energy=  2.4038146590523e-03
  0) species-3: charge density=  4.8092533788475e-06 z-momentum=  2.4414611711642e-24 energy=  2.4038146590523e-03
  0) species-4: charge density=  6.4123378384633e-06 z-momentum=  2.4414611711642e-24 energy=  2.4038146590523e-03
  0) species-5: charge density=  8.0154222980792e-06 z-momentum=  2.4414611711642e-24 energy=  2.4038146590523e-03
  0) species-6: charge density=  9.6185067576950e-06 z-momentum=  2.4414611711642e-24 energy=  2.4038146590523e-03
  0) species-7: charge density=  1.1221591217311e-05 z-momentum=  2.4414611711642e-24 energy=  2.4038146590523e-03
  0) species-8: charge density=  1.2824675676927e-05 z-momentum=  2.4414611711642e-24 energy=  2.4038146590523e-03
  0) species-9: charge density=  1.4427760136543e-05 z-momentum=  2.4414611711642e-24 energy=  2.4038146590523e-03
	  0) Total: charge density= -3.2909954924592e-03, momentum= -2.8908999177118e-18, energy=  3.6028744755055e+04 (m_i[0]/m_e = 14683.8, 80 cells)
testSpitzer:    0) time= 0.0000e+00 n_e=  1.000e+00 E=  0.000e+00 J=  1.783e-08 J_re= -1.482e-09 -8.31 % Te_kev=  9.987e-01 Z_eff=2. E/J to eta ratio=0. (diff=1e+10) constant E normal
[0]FormLandau: 1280 IPs, 80 cells, totDim=160, Nb=16, Nq=16, elemMatSize=25600, dim=2, Tab: Nb=16 Nf=10 Np=16 cdim=2 N=7030 N+hang=9430, shift=0.
  Nonlinear solve converged due to CONVERGED_SNORM_RELATIVE iterations 6
  Nonlinear solve converged due to CONVERGED_SNORM_RELATIVE iterations 4
  Nonlinear solve converged due to CONVERGED_SNORM_RELATIVE iterations 4
      TSAdapt basic arkimex 0:1bee step   0 accepted t=0          + 5.000e-01 dt=5.500e-01  wlte=0.148  wltea=   -1 wlter=   -1
1 TS dt 0.55 time 0.5
  1) species-0: charge density= -1.6023053677413e+01 z-momentum=  2.6599151463973e-19 energy=  2.4017988700178e+04
  1) species-1: charge density=  1.6019692146204e+01 z-momentum= -1.9456805834921e-18 energy=  1.2010736689909e+04
  1) species-2: charge density=  3.2061689192317e-06 z-momentum=  3.5028442704312e-25 energy=  2.4038187113906e-03
  1) species-3: charge density=  4.8092533788475e-06 z-momentum= -2.4863340887616e-24 energy=  2.4038237575443e-03
  1) species-4: charge density=  6.4123378384633e-06 z-momentum= -3.0317690826738e-24 energy=  2.4038307870169e-03
  1) species-5: charge density=  8.0154222980792e-06 z-momentum= -4.9717064095369e-24 energy=  2.4038397663968e-03
  1) species-6: charge density=  9.6185067576950e-06 z-momentum=  3.8427128216892e-24 energy=  2.4038506549003e-03
  1) species-7: charge density=  1.1221591217311e-05 z-momentum= -7.5908319456302e-25 energy=  2.4038634055473e-03
  1) species-8: charge density=  1.2824675676927e-05 z-momentum= -8.4471303435697e-25 energy=  2.4038779662144e-03
  1) species-9: charge density=  1.4427760136543e-05 z-momentum= -5.4092038938458e-24 energy=  2.4038942804506e-03
	  1) Total: charge density= -3.2909954924059e-03, momentum= -1.6797023786648e-18, energy=  3.6028744620886e+04 (m_i[0]/m_e = 14683.8, 80 cells)
testSpitzer:    1) time= 5.0000e-01 n_e=  1.000e+00 E=  0.000e+00 J=  4.814e-08 J_re= -8.262e-10 -1.72 % Te_kev=  9.986e-01 Z_eff=2. E/J to eta ratio=0. (diff=0.) constant E normal
[0] parallel consistency check OK
 ***** [3] ERROR max |x| =  6.412207324247004e+05, my |x| =  6.412207324247003e+05 diff=1.164153e-10
0 TS dt 0.5 time 0.
  0) species-0: charge density= -1.6023053677413e+01 z-momentum= -5.8883697213094e-20 energy=  2.4017990192310e+04
  0) species-1: charge density=  1.6019692146204e+01 z-momentum= -2.8320357521881e-18 energy=  1.2010735332228e+04
  0) species-2: charge density=  3.2061689192317e-06 z-momentum=  2.4414611711642e-24 energy=  2.4038146590523e-03
  0) species-3: charge density=  4.8092533788475e-06 z-momentum=  2.4414611711642e-24 energy=  2.4038146590523e-03
  0) species-4: charge density=  6.4123378384633e-06 z-momentum=  2.4414611711642e-24 energy=  2.4038146590523e-03
  0) species-5: charge density=  8.0154222980792e-06 z-momentum=  2.4414611711642e-24 energy=  2.4038146590523e-03
  0) species-6: charge density=  9.6185067576950e-06 z-momentum=  2.4414611711642e-24 energy=  2.4038146590523e-03
  0) species-7: charge density=  1.1221591217311e-05 z-momentum=  2.4414611711642e-24 energy=  2.4038146590523e-03
  0) species-8: charge density=  1.2824675676927e-05 z-momentum=  2.4414611711642e-24 energy=  2.4038146590523e-03
  0) species-9: charge density=  1.4427760136543e-05 z-momentum=  2.4414611711642e-24 energy=  2.4038146590523e-03
	  0) Total: charge density= -3.2909954924592e-03, momentum= -2.8908999177118e-18, energy=  3.6028744755055e+04 (m_i[0]/m_e = 14683.8, 80 cells)
testSpitzer:    0) time= 0.0000e+00 n_e=  1.000e+00 E=  0.000e+00 J=  1.783e-08 J_re= -1.482e-09 -8.31 % Te_kev=  9.987e-01 Z_eff=2. E/J to eta ratio=0. (diff=0.) constant E normal
  Nonlinear solve converged due to CONVERGED_SNORM_RELATIVE iterations 6
  Nonlinear solve converged due to CONVERGED_SNORM_RELATIVE iterations 4
  Nonlinear solve converged due to CONVERGED_SNORM_RELATIVE iterations 4
      TSAdapt basic arkimex 0:1bee step   0 accepted t=0          + 5.000e-01 dt=5.500e-01  wlte=0.148  wltea=   -1 wlter=   -1
1 TS dt 0.55 time 0.5
  Nonlinear solve converged due to CONVERGED_SNORM_RELATIVE iterations 6
  Nonlinear solve converged due to CONVERGED_SNORM_RELATIVE iterations 4
  Nonlinear solve converged due to CONVERGED_SNORM_RELATIVE iterations 5
      TSAdapt basic arkimex 0:1bee step   1 accepted t=0.5        + 5.500e-01 dt=6.050e-01  wlte=0.0728  wltea=   -1 wlter=   -1
2 TS dt 0.605 time 1.05
  Nonlinear solve converged due to CONVERGED_SNORM_RELATIVE iterations 6
  Nonlinear solve converged due to CONVERGED_SNORM_RELATIVE iterations 4
  Nonlinear solve converged due to CONVERGED_SNORM_RELATIVE iterations 4
      TSAdapt basic arkimex 0:1bee step   2 accepted t=1.05       + 6.050e-01 dt=6.655e-01  wlte=0.0511  wltea=   -1 wlter=   -1
3 TS dt 0.6655 time 1.655
  Nonlinear solve converged due to CONVERGED_SNORM_RELATIVE iterations 6
  Nonlinear solve converged due to CONVERGED_SNORM_RELATIVE iterations 4
  Nonlinear solve converged due to CONVERGED_SNORM_RELATIVE iterations 4
      TSAdapt basic arkimex 0:1bee step   3 accepted t=1.655      + 6.655e-01 dt=7.321e-01  wlte=0.0435  wltea=   -1 wlter=   -1
4 TS dt 0.73205 time 2.3205
  Nonlinear solve converged due to CONVERGED_SNORM_RELATIVE iterations 7
  Nonlinear solve converged due to CONVERGED_SNORM_RELATIVE iterations 5
  Nonlinear solve converged due to CONVERGED_SNORM_RELATIVE iterations 5
      TSAdapt basic arkimex 0:1bee step   4 accepted t=2.3205     + 7.321e-01 dt=8.053e-01  wlte=0.0424  wltea=   -1 wlter=   -1
5 TS dt 0.805255 time 3.05255
  Nonlinear solve converged due to CONVERGED_SNORM_RELATIVE iterations 8
  Nonlinear solve converged due to CONVERGED_SNORM_RELATIVE iterations 6
  Nonlinear solve converged due to CONVERGED_SNORM_RELATIVE iterations 6
      TSAdapt basic arkimex 0:1bee step   5 accepted t=3.05255    + 8.053e-01 dt=8.858e-01  wlte=0.0425  wltea=   -1 wlter=   -1
6 TS dt 0.885781 time 3.85781
  Nonlinear solve converged due to CONVERGED_SNORM_RELATIVE iterations 9
  Nonlinear solve converged due to CONVERGED_SNORM_RELATIVE iterations 6
  Nonlinear solve converged due to CONVERGED_SNORM_RELATIVE iterations 6
      TSAdapt basic arkimex 0:1bee step   6 accepted t=3.85781    + 8.858e-01 dt=9.744e-01  wlte=0.0439  wltea=   -1 wlter=   -1
7 TS dt 0.974359 time 4.74359
  Nonlinear solve converged due to CONVERGED_SNORM_RELATIVE iterations 9
  Nonlinear solve converged due to CONVERGED_SNORM_RELATIVE iterations 6
  Nonlinear solve converged due to CONVERGED_SNORM_RELATIVE iterations 6
      TSAdapt basic arkimex 0:1bee step   7 accepted t=4.74359    + 9.744e-01 dt=1.000e+00  wlte=0.0478  wltea=   -1 wlter=   -1
8 TS dt 1. time 5.71794
  Nonlinear solve converged due to CONVERGED_SNORM_RELATIVE iterations 9
  Nonlinear solve converged due to CONVERGED_SNORM_RELATIVE iterations 6
  Nonlinear solve converged due to CONVERGED_SNORM_RELATIVE iterations 6
      TSAdapt basic arkimex 0:1bee step   8 accepted t=5.71794    + 1.000e+00 dt=1.000e+00  wlte=0.0499  wltea=   -1 wlter=   -1
9 TS dt 1. time 6.71794
  Nonlinear solve converged due to CONVERGED_SNORM_RELATIVE iterations 9
  Nonlinear solve converged due to CONVERGED_SNORM_RELATIVE iterations 6
  Nonlinear solve converged due to CONVERGED_SNORM_RELATIVE iterations 6
      TSAdapt basic arkimex 0:1bee step   9 accepted t=6.71794    + 1.000e+00 dt=1.000e+00  wlte=0.0584  wltea=   -1 wlter=   -1
10 TS dt 1. time 7.71794
  Nonlinear solve converged due to CONVERGED_SNORM_RELATIVE iterations 9
  Nonlinear solve converged due to CONVERGED_SNORM_RELATIVE iterations 6
  Nonlinear solve converged due to CONVERGED_SNORM_RELATIVE iterations 6
      TSAdapt basic arkimex 0:1bee step  10 accepted t=7.71794    + 1.000e+00 dt=1.000e+00  wlte=0.128  wltea=   -1 wlter=   -1
11 TS dt 1. time 8.71794
  Nonlinear solve converged due to CONVERGED_SNORM_RELATIVE iterations 9
  Nonlinear solve converged due to CONVERGED_SNORM_RELATIVE iterations 6
  Nonlinear solve converged due to CONVERGED_SNORM_RELATIVE iterations 6
      TSAdapt basic arkimex 0:1bee step  11 accepted t=8.71794    + 1.000e+00 dt=1.000e+00  wlte=0.0417  wltea=   -1 wlter=   -1
12 TS dt 1. time 9.71794
  Nonlinear solve converged due to CONVERGED_SNORM_RELATIVE iterations 8
  Nonlinear solve converged due to CONVERGED_SNORM_RELATIVE iterations 6
  Nonlinear solve converged due to CONVERGED_SNORM_RELATIVE iterations 6
      TSAdapt basic arkimex 0:1bee step  12 accepted t=9.71794    + 1.000e+00 dt=1.000e+00  wlte=0.0264  wltea=   -1 wlter=   -1
13 TS dt 1. time 10.7179
  Nonlinear solve converged due to CONVERGED_SNORM_RELATIVE iterations 8
  Nonlinear solve converged due to CONVERGED_SNORM_RELATIVE iterations 6
  Nonlinear solve converged due to CONVERGED_SNORM_RELATIVE iterations 6
      TSAdapt basic arkimex 0:1bee step  13 accepted t=10.7179    + 1.000e+00 dt=1.000e+00  wlte=0.0213  wltea=   -1 wlter=   -1
14 TS dt 1. time 11.7179
  Nonlinear solve converged due to CONVERGED_SNORM_RELATIVE iterations 8
  Nonlinear solve converged due to CONVERGED_SNORM_RELATIVE iterations 5
  Nonlinear solve converged due to CONVERGED_SNORM_RELATIVE iterations 5
      TSAdapt basic arkimex 0:1bee step  14 accepted t=11.7179    + 1.000e+00 dt=1.000e+00  wlte=0.0192  wltea=   -1 wlter=   -1
15 TS dt 1. time 12.7179
  Nonlinear solve converged due to CONVERGED_SNORM_RELATIVE iterations 7
  Nonlinear solve converged due to CONVERGED_SNORM_RELATIVE iterations 4
  Nonlinear solve converged due to CONVERGED_SNORM_RELATIVE iterations 5
      TSAdapt basic arkimex 0:1bee step  15 accepted t=12.7179    + 1.000e+00 dt=1.000e+00  wlte=0.0186  wltea=   -1 wlter=   -1
16 TS dt 1. time 13.7179
  Nonlinear solve converged due to CONVERGED_SNORM_RELATIVE iterations 6
  Nonlinear solve converged due to CONVERGED_SNORM_RELATIVE iterations 4
  Nonlinear solve converged due to CONVERGED_SNORM_RELATIVE iterations 4
      TSAdapt basic arkimex 0:1bee step  16 accepted t=13.7179    + 1.000e+00 dt=1.000e+00  wlte=0.0187  wltea=   -1 wlter=   -1
17 TS dt 1. time 14.7179
  Nonlinear solve converged due to CONVERGED_SNORM_RELATIVE iterations 6
  Nonlinear solve converged due to CONVERGED_SNORM_RELATIVE iterations 5
  Nonlinear solve converged due to CONVERGED_SNORM_RELATIVE iterations 4
      TSAdapt basic arkimex 0:1bee step  17 accepted t=14.7179    + 1.000e+00 dt=1.000e+00  wlte=0.0213  wltea=   -1 wlter=   -1
18 TS dt 1. time 15.7179
  Nonlinear solve converged due to CONVERGED_SNORM_RELATIVE iterations 7
  Nonlinear solve converged due to CONVERGED_SNORM_RELATIVE iterations 5
  Nonlinear solve converged due to CONVERGED_SNORM_RELATIVE iterations 5
      TSAdapt basic arkimex 0:1bee step  18 accepted t=15.7179    + 1.000e+00 dt=1.000e+00  wlte=0.0192  wltea=   -1 wlter=   -1
19 TS dt 1. time 16.7179
  Nonlinear solve converged due to CONVERGED_SNORM_RELATIVE iterations 7
  Nonlinear solve converged due to CONVERGED_SNORM_RELATIVE iterations 5
  Nonlinear solve converged due to CONVERGED_SNORM_RELATIVE iterations 5
      TSAdapt basic arkimex 0:1bee step  19 accepted t=16.7179    + 1.000e+00 dt=1.000e+00  wlte=0.0149  wltea=   -1 wlter=   -1
20 TS dt 1. time 17.7179
  Nonlinear solve converged due to CONVERGED_SNORM_RELATIVE iterations 7
  Nonlinear solve converged due to CONVERGED_SNORM_RELATIVE iterations 5
  Nonlinear solve converged due to CONVERGED_SNORM_RELATIVE iterations 5
      TSAdapt basic arkimex 0:1bee step  20 accepted t=17.7179    + 1.000e+00 dt=1.000e+00  wlte=0.0122  wltea=   -1 wlter=   -1
21 TS dt 1. time 18.7179
  Nonlinear solve converged due to CONVERGED_SNORM_RELATIVE iterations 8
  Nonlinear solve converged due to CONVERGED_SNORM_RELATIVE iterations 5
  Nonlinear solve converged due to CONVERGED_SNORM_RELATIVE iterations 5
      TSAdapt basic arkimex 0:1bee step  21 accepted t=18.7179    + 1.000e+00 dt=1.000e+00  wlte=0.0104  wltea=   -1 wlter=   -1
22 TS dt 1. time 19.7179
  Nonlinear solve converged due to CONVERGED_SNORM_RELATIVE iterations 8
  Nonlinear solve converged due to CONVERGED_SNORM_RELATIVE iterations 5
  Nonlinear solve converged due to CONVERGED_SNORM_RELATIVE iterations 5
      TSAdapt basic arkimex 0:1bee step  22 accepted t=19.7179    + 1.000e+00 dt=1.000e+00  wlte=0.00917  wltea=   -1 wlter=   -1
23 TS dt 1. time 20.7179
  Nonlinear solve converged due to CONVERGED_SNORM_RELATIVE iterations 8
  Nonlinear solve converged due to CONVERGED_SNORM_RELATIVE iterations 5
  Nonlinear solve converged due to CONVERGED_SNORM_RELATIVE iterations 5
      TSAdapt basic arkimex 0:1bee step  23 accepted t=20.7179    + 1.000e+00 dt=1.000e+00  wlte=0.00817  wltea=   -1 wlter=   -1
24 TS dt 1. time 21.7179
  Nonlinear solve converged due to CONVERGED_SNORM_RELATIVE iterations 8
  Nonlinear solve converged due to CONVERGED_SNORM_RELATIVE iterations 5
  Nonlinear solve converged due to CONVERGED_SNORM_RELATIVE iterations 5
      TSAdapt basic arkimex 0:1bee step  24 accepted t=21.7179    + 1.000e+00 dt=1.000e+00  wlte=0.00724  wltea=   -1 wlter=   -1
25 TS dt 1. time 22.7179
  Nonlinear solve converged due to CONVERGED_SNORM_RELATIVE iterations 8
  Nonlinear solve converged due to CONVERGED_SNORM_RELATIVE iterations 5
  Nonlinear solve converged due to CONVERGED_SNORM_RELATIVE iterations 5
      TSAdapt basic arkimex 0:1bee step  25 accepted t=22.7179    + 1.000e+00 dt=1.000e+00  wlte=0.00649  wltea=   -1 wlter=   -1
26 TS dt 1. time 23.7179
  Nonlinear solve converged due to CONVERGED_SNORM_RELATIVE iterations 8
  Nonlinear solve converged due to CONVERGED_SNORM_RELATIVE iterations 5
  Nonlinear solve converged due to CONVERGED_SNORM_RELATIVE iterations 5
      TSAdapt basic arkimex 0:1bee step  26 accepted t=23.7179    + 1.000e+00 dt=1.000e+00  wlte=0.00588  wltea=   -1 wlter=   -1
27 TS dt 1. time 24.7179
  Nonlinear solve converged due to CONVERGED_SNORM_RELATIVE iterations 8
  Nonlinear solve converged due to CONVERGED_SNORM_RELATIVE iterations 5
  Nonlinear solve converged due to CONVERGED_SNORM_RELATIVE iterations 5
      TSAdapt basic arkimex 0:1bee step  27 accepted t=24.7179    + 1.000e+00 dt=1.000e+00  wlte=0.00536  wltea=   -1 wlter=   -1
28 TS dt 1. time 25.7179
  Nonlinear solve converged due to CONVERGED_SNORM_RELATIVE iterations 8
  Nonlinear solve converged due to CONVERGED_SNORM_RELATIVE iterations 5
  Nonlinear solve converged due to CONVERGED_SNORM_RELATIVE iterations 5
      TSAdapt basic arkimex 0:1bee step  28 accepted t=25.7179    + 1.000e+00 dt=1.000e+00  wlte=0.00488  wltea=   -1 wlter=   -1
29 TS dt 1. time 26.7179
  Nonlinear solve converged due to CONVERGED_SNORM_RELATIVE iterations 8
  Nonlinear solve converged due to CONVERGED_SNORM_RELATIVE iterations 5
  Nonlinear solve converged due to CONVERGED_SNORM_RELATIVE iterations 5
      TSAdapt basic arkimex 0:1bee step  29 accepted t=26.7179    + 1.000e+00 dt=1.000e+00  wlte=0.00443  wltea=   -1 wlter=   -1
30 TS dt 1. time 27.7179
  Nonlinear solve converged due to CONVERGED_SNORM_RELATIVE iterations 8
  Nonlinear solve converged due to CONVERGED_SNORM_RELATIVE iterations 5
  Nonlinear solve converged due to CONVERGED_SNORM_RELATIVE iterations 5
      TSAdapt basic arkimex 0:1bee step  30 accepted t=27.7179    + 1.000e+00 dt=1.000e+00  wlte=0.00407  wltea=   -1 wlter=   -1
31 TS dt 1. time 28.7179
  Nonlinear solve converged due to CONVERGED_SNORM_RELATIVE iterations 8
  Nonlinear solve converged due to CONVERGED_SNORM_RELATIVE iterations 5
  Nonlinear solve converged due to CONVERGED_SNORM_RELATIVE iterations 5
      TSAdapt basic arkimex 0:1bee step  31 accepted t=28.7179    + 1.000e+00 dt=1.000e+00  wlte=0.00377  wltea=   -1 wlter=   -1
32 TS dt 1. time 29.7179
  Nonlinear solve converged due to CONVERGED_SNORM_RELATIVE iterations 8
  Nonlinear solve converged due to CONVERGED_SNORM_RELATIVE iterations 5
  Nonlinear solve converged due to CONVERGED_SNORM_RELATIVE iterations 5
      TSAdapt basic arkimex 0:1bee step  32 accepted t=29.7179    + 1.000e+00 dt=1.000e+00  wlte=0.00353  wltea=   -1 wlter=   -1
33 TS dt 1. time 30.7179
  Nonlinear solve converged due to CONVERGED_SNORM_RELATIVE iterations 8
  Nonlinear solve converged due to CONVERGED_SNORM_RELATIVE iterations 5
  Nonlinear solve converged due to CONVERGED_SNORM_RELATIVE iterations 5
      TSAdapt basic arkimex 0:1bee step  33 accepted t=30.7179    + 1.000e+00 dt=1.000e+00  wlte=0.00333  wltea=   -1 wlter=   -1
34 TS dt 1. time 31.7179
  Nonlinear solve converged due to CONVERGED_SNORM_RELATIVE iterations 8
  Nonlinear solve converged due to CONVERGED_SNORM_RELATIVE iterations 5
  Nonlinear solve converged due to CONVERGED_SNORM_RELATIVE iterations 5
      TSAdapt basic arkimex 0:1bee step  34 accepted t=31.7179    + 1.000e+00 dt=1.000e+00  wlte=0.00318  wltea=   -1 wlter=   -1
35 TS dt 1. time 32.7179
  Nonlinear solve converged due to CONVERGED_SNORM_RELATIVE iterations 8
  Nonlinear solve converged due to CONVERGED_SNORM_RELATIVE iterations 5
  Nonlinear solve converged due to CONVERGED_SNORM_RELATIVE iterations 5
      TSAdapt basic arkimex 0:1bee step  35 accepted t=32.7179    + 1.000e+00 dt=1.000e+00  wlte=0.00307  wltea=   -1 wlter=   -1
36 TS dt 1. time 33.7179
  Nonlinear solve converged due to CONVERGED_SNORM_RELATIVE iterations 8
  Nonlinear solve converged due to CONVERGED_SNORM_RELATIVE iterations 5
  Nonlinear solve converged due to CONVERGED_SNORM_RELATIVE iterations 5
      TSAdapt basic arkimex 0:1bee step  36 accepted t=33.7179    + 1.000e+00 dt=1.000e+00  wlte=0.003  wltea=   -1 wlter=   -1
37 TS dt 1. time 34.7179
  Nonlinear solve converged due to CONVERGED_SNORM_RELATIVE iterations 8
  Nonlinear solve converged due to CONVERGED_SNORM_RELATIVE iterations 5
  Nonlinear solve converged due to CONVERGED_SNORM_RELATIVE iterations 5
      TSAdapt basic arkimex 0:1bee step  37 accepted t=34.7179    + 1.000e+00 dt=1.000e+00  wlte=0.00288  wltea=   -1 wlter=   -1
38 TS dt 1. time 35.7179
  Nonlinear solve converged due to CONVERGED_SNORM_RELATIVE iterations 8
  Nonlinear solve converged due to CONVERGED_SNORM_RELATIVE iterations 5
  Nonlinear solve converged due to CONVERGED_SNORM_RELATIVE iterations 5
      TSAdapt basic arkimex 0:1bee step  38 accepted t=35.7179    + 1.000e+00 dt=1.000e+00  wlte=0.00274  wltea=   -1 wlter=   -1
39 TS dt 1. time 36.7179
  Nonlinear solve converged due to CONVERGED_SNORM_RELATIVE iterations 8
  Nonlinear solve converged due to CONVERGED_SNORM_RELATIVE iterations 4
  Nonlinear solve converged due to CONVERGED_SNORM_RELATIVE iterations 4
      TSAdapt basic arkimex 0:1bee step  39 accepted t=36.7179    + 1.000e+00 dt=1.000e+00  wlte=0.00266  wltea=   -1 wlter=   -1
40 TS dt 1. time 37.7179
  Nonlinear solve converged due to CONVERGED_SNORM_RELATIVE iterations 8
  Nonlinear solve converged due to CONVERGED_SNORM_RELATIVE iterations 4
  Nonlinear solve converged due to CONVERGED_SNORM_RELATIVE iterations 4
      TSAdapt basic arkimex 0:1bee step  40 accepted t=37.7179    + 1.000e+00 dt=1.000e+00  wlte=0.00261  wltea=   -1 wlter=   -1
41 TS dt 1. time 38.7179
  Nonlinear solve converged due to CONVERGED_SNORM_RELATIVE iterations 8
  Nonlinear solve converged due to CONVERGED_SNORM_RELATIVE iterations 4
  Nonlinear solve converged due to CONVERGED_SNORM_RELATIVE iterations 4
      TSAdapt basic arkimex 0:1bee step  41 accepted t=38.7179    + 1.000e+00 dt=1.000e+00  wlte=0.00262  wltea=   -1 wlter=   -1
42 TS dt 1. time 39.7179
  Nonlinear solve converged due to CONVERGED_SNORM_RELATIVE iterations 8
  Nonlinear solve converged due to CONVERGED_SNORM_RELATIVE iterations 4
  Nonlinear solve converged due to CONVERGED_SNORM_RELATIVE iterations 4
      TSAdapt basic arkimex 0:1bee step  42 accepted t=39.7179    + 1.000e+00 dt=1.000e+00  wlte=0.0027  wltea=   -1 wlter=   -1
43 TS dt 1. time 40.7179
  Nonlinear solve converged due to CONVERGED_SNORM_RELATIVE iterations 8
  Nonlinear solve converged due to CONVERGED_SNORM_RELATIVE iterations 4
  Nonlinear solve converged due to CONVERGED_SNORM_RELATIVE iterations 4
      TSAdapt basic arkimex 0:1bee step  43 accepted t=40.7179    + 1.000e+00 dt=1.000e+00  wlte=0.00288  wltea=   -1 wlter=   -1
44 TS dt 1. time 41.7179
  Nonlinear solve converged due to CONVERGED_SNORM_RELATIVE iterations 8
  Nonlinear solve converged due to CONVERGED_SNORM_RELATIVE iterations 4
  Nonlinear solve converged due to CONVERGED_SNORM_RELATIVE iterations 4
      TSAdapt basic arkimex 0:1bee step  44 accepted t=41.7179    + 1.000e+00 dt=1.000e+00  wlte=0.00325  wltea=   -1 wlter=   -1
45 TS dt 1. time 42.7179
  Nonlinear solve converged due to CONVERGED_SNORM_RELATIVE iterations 8
  Nonlinear solve converged due to CONVERGED_SNORM_RELATIVE iterations 4
  Nonlinear solve converged due to CONVERGED_SNORM_RELATIVE iterations 4
      TSAdapt basic arkimex 0:1bee step  45 accepted t=42.7179    + 1.000e+00 dt=1.000e+00  wlte=0.00405  wltea=   -1 wlter=   -1
46 TS dt 1. time 43.7179
  Nonlinear solve converged due to CONVERGED_SNORM_RELATIVE iterations 7
  Nonlinear solve converged due to CONVERGED_SNORM_RELATIVE iterations 4
  Nonlinear solve converged due to CONVERGED_SNORM_RELATIVE iterations 4
      TSAdapt basic arkimex 0:1bee step  46 accepted t=43.7179    + 1.000e+00 dt=1.000e+00  wlte=0.00511  wltea=   -1 wlter=   -1
47 TS dt 1. time 44.7179
  Nonlinear solve converged due to CONVERGED_SNORM_RELATIVE iterations 8
  Nonlinear solve converged due to CONVERGED_SNORM_RELATIVE iterations 4
  Nonlinear solve converged due to CONVERGED_SNORM_RELATIVE iterations 4
      TSAdapt basic arkimex 0:1bee step  47 accepted t=44.7179    + 1.000e+00 dt=1.000e+00  wlte=0.00317  wltea=   -1 wlter=   -1
48 TS dt 1. time 45.7179
  Nonlinear solve converged due to CONVERGED_SNORM_RELATIVE iterations 8
  Nonlinear solve converged due to CONVERGED_SNORM_RELATIVE iterations 4
  Nonlinear solve converged due to CONVERGED_SNORM_RELATIVE iterations 4
      TSAdapt basic arkimex 0:1bee step  48 accepted t=45.7179    + 1.000e+00 dt=1.000e+00  wlte=0.00246  wltea=   -1 wlter=   -1
49 TS dt 1. time 46.7179
  Nonlinear solve converged due to CONVERGED_SNORM_RELATIVE iterations 8
  Nonlinear solve converged due to CONVERGED_SNORM_RELATIVE iterations 4
  Nonlinear solve converged due to CONVERGED_SNORM_RELATIVE iterations 4
      TSAdapt basic arkimex 0:1bee step  49 accepted t=46.7179    + 1.000e+00 dt=1.000e+00  wlte=0.00221  wltea=   -1 wlter=   -1
50 TS dt 1. time 47.7179
  Nonlinear solve converged due to CONVERGED_SNORM_RELATIVE iterations 8
  Nonlinear solve converged due to CONVERGED_SNORM_RELATIVE iterations 4
  Nonlinear solve converged due to CONVERGED_SNORM_RELATIVE iterations 4
      TSAdapt basic arkimex 0:1bee step  50 accepted t=47.7179    + 1.000e+00 dt=1.000e+00  wlte=0.00228  wltea=   -1 wlter=   -1
51 TS dt 1. time 48.7179
  Nonlinear solve converged due to CONVERGED_SNORM_RELATIVE iterations 8
  Nonlinear solve converged due to CONVERGED_SNORM_RELATIVE iterations 4
  Nonlinear solve converged due to CONVERGED_SNORM_RELATIVE iterations 4
      TSAdapt basic arkimex 0:1bee step  51 accepted t=48.7179    + 1.000e+00 dt=1.000e+00  wlte=0.00202  wltea=   -1 wlter=   -1
52 TS dt 1. time 49.7179
  Nonlinear solve converged due to CONVERGED_SNORM_RELATIVE iterations 8
  Nonlinear solve converged due to CONVERGED_SNORM_RELATIVE iterations 4
  Nonlinear solve converged due to CONVERGED_SNORM_RELATIVE iterations 4
      TSAdapt basic arkimex 0:1bee step  52 accepted t=49.7179    + 1.000e+00 dt=1.000e+00  wlte=0.00155  wltea=   -1 wlter=   -1
53 TS dt 1. time 50.7179
  Nonlinear solve converged due to CONVERGED_SNORM_RELATIVE iterations 8
  Nonlinear solve converged due to CONVERGED_SNORM_RELATIVE iterations 4
  Nonlinear solve converged due to CONVERGED_SNORM_RELATIVE iterations 4
      TSAdapt basic arkimex 0:1bee step  53 accepted t=50.7179    + 1.000e+00 dt=1.000e+00  wlte=0.0013  wltea=   -1 wlter=   -1
54 TS dt 1. time 51.7179
  Nonlinear solve converged due to CONVERGED_SNORM_RELATIVE iterations 8
  Nonlinear solve converged due to CONVERGED_SNORM_RELATIVE iterations 4
  Nonlinear solve converged due to CONVERGED_SNORM_RELATIVE iterations 4
      TSAdapt basic arkimex 0:1bee step  54 accepted t=51.7179    + 1.000e+00 dt=1.000e+00  wlte=0.00116  wltea=   -1 wlter=   -1
55 TS dt 1. time 52.7179
  Nonlinear solve converged due to CONVERGED_SNORM_RELATIVE iterations 8
  Nonlinear solve converged due to CONVERGED_SNORM_RELATIVE iterations 4
  Nonlinear solve converged due to CONVERGED_SNORM_RELATIVE iterations 4
      TSAdapt basic arkimex 0:1bee step  55 accepted t=52.7179    + 1.000e+00 dt=1.000e+00  wlte=0.00108  wltea=   -1 wlter=   -1
56 TS dt 1. time 53.7179
  Nonlinear solve converged due to CONVERGED_SNORM_RELATIVE iterations 8
  Nonlinear solve converged due to CONVERGED_SNORM_RELATIVE iterations 4
  Nonlinear solve converged due to CONVERGED_SNORM_RELATIVE iterations 4
      TSAdapt basic arkimex 0:1bee step  56 accepted t=53.7179    + 1.000e+00 dt=1.000e+00  wlte=0.00102  wltea=   -1 wlter=   -1
57 TS dt 1. time 54.7179
  Nonlinear solve converged due to CONVERGED_SNORM_RELATIVE iterations 8
  Nonlinear solve converged due to CONVERGED_SNORM_RELATIVE iterations 4
  Nonlinear solve converged due to CONVERGED_SNORM_RELATIVE iterations 4
      TSAdapt basic arkimex 0:1bee step  57 accepted t=54.7179    + 1.000e+00 dt=1.000e+00  wlte=0.000986  wltea=   -1 wlter=   -1
58 TS dt 1. time 55.7179
  Nonlinear solve converged due to CONVERGED_SNORM_RELATIVE iterations 8
  Nonlinear solve converged due to CONVERGED_SNORM_RELATIVE iterations 4
  Nonlinear solve converged due to CONVERGED_SNORM_RELATIVE iterations 4
      TSAdapt basic arkimex 0:1bee step  58 accepted t=55.7179    + 1.000e+00 dt=1.000e+00  wlte=0.000964  wltea=   -1 wlter=   -1
59 TS dt 1. time 56.7179
  Nonlinear solve converged due to CONVERGED_SNORM_RELATIVE iterations 8
  Nonlinear solve converged due to CONVERGED_SNORM_RELATIVE iterations 4
  Nonlinear solve converged due to CONVERGED_SNORM_RELATIVE iterations 4
      TSAdapt basic arkimex 0:1bee step  59 accepted t=56.7179    + 1.000e+00 dt=1.000e+00  wlte=0.00095  wltea=   -1 wlter=   -1
60 TS dt 1. time 57.7179
  Nonlinear solve converged due to CONVERGED_SNORM_RELATIVE iterations 8
  Nonlinear solve converged due to CONVERGED_SNORM_RELATIVE iterations 4
  Nonlinear solve converged due to CONVERGED_SNORM_RELATIVE iterations 4
      TSAdapt basic arkimex 0:1bee step  60 accepted t=57.7179    + 1.000e+00 dt=1.000e+00  wlte=0.000941  wltea=   -1 wlter=   -1
61 TS dt 1. time 58.7179
  Nonlinear solve converged due to CONVERGED_SNORM_RELATIVE iterations 8
  Nonlinear solve converged due to CONVERGED_SNORM_RELATIVE iterations 4
  Nonlinear solve converged due to CONVERGED_SNORM_RELATIVE iterations 4
      TSAdapt basic arkimex 0:1bee step  61 accepted t=58.7179    + 1.000e+00 dt=1.000e+00  wlte=0.000937  wltea=   -1 wlter=   -1
62 TS dt 1. time 59.7179
  Nonlinear solve converged due to CONVERGED_SNORM_RELATIVE iterations 8
  Nonlinear solve converged due to CONVERGED_SNORM_RELATIVE iterations 4
  Nonlinear solve converged due to CONVERGED_SNORM_RELATIVE iterations 4
      TSAdapt basic arkimex 0:1bee step  62 accepted t=59.7179    + 1.000e+00 dt=1.000e+00  wlte=0.000935  wltea=   -1 wlter=   -1
63 TS dt 1. time 60.7179
  Nonlinear solve converged due to CONVERGED_SNORM_RELATIVE iterations 8
  Nonlinear solve converged due to CONVERGED_SNORM_RELATIVE iterations 4
  Nonlinear solve converged due to CONVERGED_SNORM_RELATIVE iterations 4
      TSAdapt basic arkimex 0:1bee step  63 accepted t=60.7179    + 1.000e+00 dt=1.000e+00  wlte=0.000936  wltea=   -1 wlter=   -1
64 TS dt 1. time 61.7179
  Nonlinear solve converged due to CONVERGED_SNORM_RELATIVE iterations 8
  Nonlinear solve converged due to CONVERGED_SNORM_RELATIVE iterations 4
  Nonlinear solve converged due to CONVERGED_SNORM_RELATIVE iterations 4
      TSAdapt basic arkimex 0:1bee step  64 accepted t=61.7179    + 1.000e+00 dt=1.000e+00  wlte=0.000939  wltea=   -1 wlter=   -1
65 TS dt 1. time 62.7179
  Nonlinear solve converged due to CONVERGED_SNORM_RELATIVE iterations 8
  Nonlinear solve converged due to CONVERGED_SNORM_RELATIVE iterations 4
  Nonlinear solve converged due to CONVERGED_SNORM_RELATIVE iterations 4
      TSAdapt basic arkimex 0:1bee step  65 accepted t=62.7179    + 1.000e+00 dt=1.000e+00  wlte=0.000944  wltea=   -1 wlter=   -1
66 TS dt 1. time 63.7179
  Nonlinear solve converged due to CONVERGED_SNORM_RELATIVE iterations 8
  Nonlinear solve converged due to CONVERGED_SNORM_RELATIVE iterations 4
  Nonlinear solve converged due to CONVERGED_SNORM_RELATIVE iterations 4
      TSAdapt basic arkimex 0:1bee step  66 accepted t=63.7179    + 1.000e+00 dt=1.000e+00  wlte=0.00095  wltea=   -1 wlter=   -1
67 TS dt 1. time 64.7179
  Nonlinear solve converged due to CONVERGED_SNORM_RELATIVE iterations 8
  Nonlinear solve converged due to CONVERGED_SNORM_RELATIVE iterations 4
  Nonlinear solve converged due to CONVERGED_SNORM_RELATIVE iterations 4
      TSAdapt basic arkimex 0:1bee step  67 accepted t=64.7179    + 1.000e+00 dt=1.000e+00  wlte=0.000957  wltea=   -1 wlter=   -1
68 TS dt 1. time 65.7179
  Nonlinear solve converged due to CONVERGED_SNORM_RELATIVE iterations 8
  Nonlinear solve converged due to CONVERGED_SNORM_RELATIVE iterations 4
  Nonlinear solve converged due to CONVERGED_SNORM_RELATIVE iterations 4
      TSAdapt basic arkimex 0:1bee step  68 accepted t=65.7179    + 1.000e+00 dt=1.000e+00  wlte=0.000965  wltea=   -1 wlter=   -1
69 TS dt 1. time 66.7179
  Nonlinear solve converged due to CONVERGED_SNORM_RELATIVE iterations 8
  Nonlinear solve converged due to CONVERGED_SNORM_RELATIVE iterations 4
  Nonlinear solve converged due to CONVERGED_SNORM_RELATIVE iterations 4
      TSAdapt basic arkimex 0:1bee step  69 accepted t=66.7179    + 1.000e+00 dt=1.000e+00  wlte=0.000976  wltea=   -1 wlter=   -1
70 TS dt 1. time 67.7179
  Nonlinear solve converged due to CONVERGED_SNORM_RELATIVE iterations 8
  Nonlinear solve converged due to CONVERGED_SNORM_RELATIVE iterations 4
  Nonlinear solve converged due to CONVERGED_SNORM_RELATIVE iterations 4
      TSAdapt basic arkimex 0:1bee step  70 accepted t=67.7179    + 1.000e+00 dt=1.000e+00  wlte=0.000987  wltea=   -1 wlter=   -1
71 TS dt 1. time 68.7179
  Nonlinear solve converged due to CONVERGED_SNORM_RELATIVE iterations 8
  Nonlinear solve converged due to CONVERGED_SNORM_RELATIVE iterations 4
  Nonlinear solve converged due to CONVERGED_SNORM_RELATIVE iterations 4
      TSAdapt basic arkimex 0:1bee step  71 accepted t=68.7179    + 1.000e+00 dt=1.000e+00  wlte=0.001  wltea=   -1 wlter=   -1
72 TS dt 1. time 69.7179
  Nonlinear solve converged due to CONVERGED_SNORM_RELATIVE iterations 8
  Nonlinear solve converged due to CONVERGED_SNORM_RELATIVE iterations 5
  Nonlinear solve converged due to CONVERGED_SNORM_RELATIVE iterations 4
      TSAdapt basic arkimex 0:1bee step  72 accepted t=69.7179    + 1.000e+00 dt=1.000e+00  wlte=0.00101  wltea=   -1 wlter=   -1
73 TS dt 1. time 70.7179
  Nonlinear solve converged due to CONVERGED_SNORM_RELATIVE iterations 8
  Nonlinear solve converged due to CONVERGED_SNORM_RELATIVE iterations 5
  Nonlinear solve converged due to CONVERGED_SNORM_RELATIVE iterations 5
      TSAdapt basic arkimex 0:1bee step  73 accepted t=70.7179    + 1.000e+00 dt=1.000e+00  wlte=0.00103  wltea=   -1 wlter=   -1
74 TS dt 1. time 71.7179
  Nonlinear solve converged due to CONVERGED_SNORM_RELATIVE iterations 8
  Nonlinear solve converged due to CONVERGED_SNORM_RELATIVE iterations 5
  Nonlinear solve converged due to CONVERGED_SNORM_RELATIVE iterations 5
      TSAdapt basic arkimex 0:1bee step  74 accepted t=71.7179    + 1.000e+00 dt=1.000e+00  wlte=0.00105  wltea=   -1 wlter=   -1
75 TS dt 1. time 72.7179
  Nonlinear solve converged due to CONVERGED_SNORM_RELATIVE iterations 8
  Nonlinear solve converged due to CONVERGED_SNORM_RELATIVE iterations 5
  Nonlinear solve converged due to CONVERGED_SNORM_RELATIVE iterations 5
      TSAdapt basic arkimex 0:1bee step  75 accepted t=72.7179    + 1.000e+00 dt=1.000e+00  wlte=0.00107  wltea=   -1 wlter=   -1
76 TS dt 1. time 73.7179
  Nonlinear solve converged due to CONVERGED_SNORM_RELATIVE iterations 8
  Nonlinear solve converged due to CONVERGED_SNORM_RELATIVE iterations 5
  Nonlinear solve converged due to CONVERGED_SNORM_RELATIVE iterations 5
      TSAdapt basic arkimex 0:1bee step  76 accepted t=73.7179    + 1.000e+00 dt=1.000e+00  wlte=0.0011  wltea=   -1 wlter=   -1
77 TS dt 1. time 74.7179
  Nonlinear solve converged due to CONVERGED_SNORM_RELATIVE iterations 8
  Nonlinear solve converged due to CONVERGED_SNORM_RELATIVE iterations 5
  Nonlinear solve converged due to CONVERGED_SNORM_RELATIVE iterations 5
      TSAdapt basic arkimex 0:1bee step  77 accepted t=74.7179    + 1.000e+00 dt=1.000e+00  wlte=0.00114  wltea=   -1 wlter=   -1
78 TS dt 1. time 75.7179
  Nonlinear solve converged due to CONVERGED_SNORM_RELATIVE iterations 8
  Nonlinear solve converged due to CONVERGED_SNORM_RELATIVE iterations 5
  Nonlinear solve converged due to CONVERGED_SNORM_RELATIVE iterations 5
      TSAdapt basic arkimex 0:1bee step  78 accepted t=75.7179    + 1.000e+00 dt=1.000e+00  wlte=0.00121  wltea=   -1 wlter=   -1
79 TS dt 1. time 76.7179
  Nonlinear solve converged due to CONVERGED_SNORM_RELATIVE iterations 8
  Nonlinear solve converged due to CONVERGED_SNORM_RELATIVE iterations 5
  Nonlinear solve converged due to CONVERGED_SNORM_RELATIVE iterations 5
      TSAdapt basic arkimex 0:1bee step  79 accepted t=76.7179    + 1.000e+00 dt=1.000e+00  wlte=0.00131  wltea=   -1 wlter=   -1
80 TS dt 1. time 77.7179
  Nonlinear solve converged due to CONVERGED_SNORM_RELATIVE iterations 8
  Nonlinear solve converged due to CONVERGED_SNORM_RELATIVE iterations 5
  Nonlinear solve converged due to CONVERGED_SNORM_RELATIVE iterations 5
      TSAdapt basic arkimex 0:1bee step  80 accepted t=77.7179    + 1.000e+00 dt=1.000e+00  wlte=0.00148  wltea=   -1 wlter=   -1
81 TS dt 1. time 78.7179
  Nonlinear solve converged due to CONVERGED_SNORM_RELATIVE iterations 8
  Nonlinear solve converged due to CONVERGED_SNORM_RELATIVE iterations 5
  Nonlinear solve converged due to CONVERGED_SNORM_RELATIVE iterations 5
      TSAdapt basic arkimex 0:1bee step  81 accepted t=78.7179    + 1.000e+00 dt=1.000e+00  wlte=0.00181  wltea=   -1 wlter=   -1
82 TS dt 1. time 79.7179
  Nonlinear solve converged due to CONVERGED_SNORM_RELATIVE iterations 8
  Nonlinear solve converged due to CONVERGED_SNORM_RELATIVE iterations 5
  Nonlinear solve converged due to CONVERGED_SNORM_RELATIVE iterations 5
      TSAdapt basic arkimex 0:1bee step  82 accepted t=79.7179    + 1.000e+00 dt=1.000e+00  wlte=0.0018  wltea=   -1 wlter=   -1
83 TS dt 1. time 80.7179
  Nonlinear solve converged due to CONVERGED_SNORM_RELATIVE iterations 8
  Nonlinear solve converged due to CONVERGED_SNORM_RELATIVE iterations 5
  Nonlinear solve converged due to CONVERGED_SNORM_RELATIVE iterations 5
      TSAdapt basic arkimex 0:1bee step  83 accepted t=80.7179    + 1.000e+00 dt=1.000e+00  wlte=0.00144  wltea=   -1 wlter=   -1
84 TS dt 1. time 81.7179
  Nonlinear solve converged due to CONVERGED_SNORM_RELATIVE iterations 8
  Nonlinear solve converged due to CONVERGED_SNORM_RELATIVE iterations 5
  Nonlinear solve converged due to CONVERGED_SNORM_RELATIVE iterations 5
      TSAdapt basic arkimex 0:1bee step  84 accepted t=81.7179    + 1.000e+00 dt=1.000e+00  wlte=0.00127  wltea=   -1 wlter=   -1
85 TS dt 1. time 82.7179
  Nonlinear solve converged due to CONVERGED_SNORM_RELATIVE iterations 8
  Nonlinear solve converged due to CONVERGED_SNORM_RELATIVE iterations 5
  Nonlinear solve converged due to CONVERGED_SNORM_RELATIVE iterations 5
      TSAdapt basic arkimex 0:1bee step  85 accepted t=82.7179    + 1.000e+00 dt=1.000e+00  wlte=0.00122  wltea=   -1 wlter=   -1
86 TS dt 1. time 83.7179
  Nonlinear solve converged due to CONVERGED_SNORM_RELATIVE iterations 8
  Nonlinear solve converged due to CONVERGED_SNORM_RELATIVE iterations 5
  Nonlinear solve converged due to CONVERGED_SNORM_RELATIVE iterations 5
      TSAdapt basic arkimex 0:1bee step  86 accepted t=83.7179    + 1.000e+00 dt=1.000e+00  wlte=0.00128  wltea=   -1 wlter=   -1
87 TS dt 1. time 84.7179
  Nonlinear solve converged due to CONVERGED_SNORM_RELATIVE iterations 8
  Nonlinear solve converged due to CONVERGED_SNORM_RELATIVE iterations 5
  Nonlinear solve converged due to CONVERGED_SNORM_RELATIVE iterations 5
      TSAdapt basic arkimex 0:1bee step  87 accepted t=84.7179    + 1.000e+00 dt=1.000e+00  wlte=0.00129  wltea=   -1 wlter=   -1
88 TS dt 1. time 85.7179
  Nonlinear solve converged due to CONVERGED_SNORM_RELATIVE iterations 8
  Nonlinear solve converged due to CONVERGED_SNORM_RELATIVE iterations 5
  Nonlinear solve converged due to CONVERGED_SNORM_RELATIVE iterations 5
      TSAdapt basic arkimex 0:1bee step  88 accepted t=85.7179    + 1.000e+00 dt=1.000e+00  wlte=0.00114  wltea=   -1 wlter=   -1
89 TS dt 1. time 86.7179
  Nonlinear solve converged due to CONVERGED_SNORM_RELATIVE iterations 8
  Nonlinear solve converged due to CONVERGED_SNORM_RELATIVE iterations 5
  Nonlinear solve converged due to CONVERGED_SNORM_RELATIVE iterations 5
      TSAdapt basic arkimex 0:1bee step  89 accepted t=86.7179    + 1.000e+00 dt=1.000e+00  wlte=0.00104  wltea=   -1 wlter=   -1
90 TS dt 1. time 87.7179
  Nonlinear solve converged due to CONVERGED_SNORM_RELATIVE iterations 8
  Nonlinear solve converged due to CONVERGED_SNORM_RELATIVE iterations 5
  Nonlinear solve converged due to CONVERGED_SNORM_RELATIVE iterations 5
      TSAdapt basic arkimex 0:1bee step  90 accepted t=87.7179    + 1.000e+00 dt=1.000e+00  wlte=0.00098  wltea=   -1 wlter=   -1
91 TS dt 1. time 88.7179
  Nonlinear solve converged due to CONVERGED_SNORM_RELATIVE iterations 8
  Nonlinear solve converged due to CONVERGED_SNORM_RELATIVE iterations 5
  Nonlinear solve converged due to CONVERGED_SNORM_RELATIVE iterations 5
      TSAdapt basic arkimex 0:1bee step  91 accepted t=88.7179    + 1.000e+00 dt=1.000e+00  wlte=0.000933  wltea=   -1 wlter=   -1
92 TS dt 1. time 89.7179
  Nonlinear solve converged due to CONVERGED_SNORM_RELATIVE iterations 8
  Nonlinear solve converged due to CONVERGED_SNORM_RELATIVE iterations 5
  Nonlinear solve converged due to CONVERGED_SNORM_RELATIVE iterations 5
      TSAdapt basic arkimex 0:1bee step  92 accepted t=89.7179    + 1.000e+00 dt=1.000e+00  wlte=0.000896  wltea=   -1 wlter=   -1
93 TS dt 1. time 90.7179
  Nonlinear solve converged due to CONVERGED_SNORM_RELATIVE iterations 8
  Nonlinear solve converged due to CONVERGED_SNORM_RELATIVE iterations 5
  Nonlinear solve converged due to CONVERGED_SNORM_RELATIVE iterations 5
      TSAdapt basic arkimex 0:1bee step  93 accepted t=90.7179    + 1.000e+00 dt=1.000e+00  wlte=0.000864  wltea=   -1 wlter=   -1
94 TS dt 1. time 91.7179
  Nonlinear solve converged due to CONVERGED_SNORM_RELATIVE iterations 8
  Nonlinear solve converged due to CONVERGED_SNORM_RELATIVE iterations 5
  Nonlinear solve converged due to CONVERGED_SNORM_RELATIVE iterations 5
      TSAdapt basic arkimex 0:1bee step  94 accepted t=91.7179    + 1.000e+00 dt=1.000e+00  wlte=0.000836  wltea=   -1 wlter=   -1
95 TS dt 1. time 92.7179
  Nonlinear solve converged due to CONVERGED_SNORM_RELATIVE iterations 8
  Nonlinear solve converged due to CONVERGED_SNORM_RELATIVE iterations 5
  Nonlinear solve converged due to CONVERGED_SNORM_RELATIVE iterations 5
      TSAdapt basic arkimex 0:1bee step  95 accepted t=92.7179    + 1.000e+00 dt=1.000e+00  wlte=0.000812  wltea=   -1 wlter=   -1
96 TS dt 1. time 93.7179
  Nonlinear solve converged due to CONVERGED_SNORM_RELATIVE iterations 8
  Nonlinear solve converged due to CONVERGED_SNORM_RELATIVE iterations 5
  Nonlinear solve converged due to CONVERGED_SNORM_RELATIVE iterations 5
      TSAdapt basic arkimex 0:1bee step  96 accepted t=93.7179    + 1.000e+00 dt=1.000e+00  wlte=0.00079  wltea=   -1 wlter=   -1
97 TS dt 1. time 94.7179
  Nonlinear solve converged due to CONVERGED_SNORM_RELATIVE iterations 8
  Nonlinear solve converged due to CONVERGED_SNORM_RELATIVE iterations 5
  Nonlinear solve converged due to CONVERGED_SNORM_RELATIVE iterations 5
      TSAdapt basic arkimex 0:1bee step  97 accepted t=94.7179    + 1.000e+00 dt=1.000e+00  wlte=0.000769  wltea=   -1 wlter=   -1
98 TS dt 1. time 95.7179
  Nonlinear solve converged due to CONVERGED_SNORM_RELATIVE iterations 8
  Nonlinear solve converged due to CONVERGED_SNORM_RELATIVE iterations 5
  Nonlinear solve converged due to CONVERGED_SNORM_RELATIVE iterations 5
      TSAdapt basic arkimex 0:1bee step  98 accepted t=95.7179    + 1.000e+00 dt=1.000e+00  wlte=0.00075  wltea=   -1 wlter=   -1
99 TS dt 1. time 96.7179
  Nonlinear solve converged due to CONVERGED_SNORM_RELATIVE iterations 8
  Nonlinear solve converged due to CONVERGED_SNORM_RELATIVE iterations 5
  Nonlinear solve converged due to CONVERGED_SNORM_RELATIVE iterations 5
      TSAdapt basic arkimex 0:1bee step  99 accepted t=96.7179    + 1.000e+00 dt=1.000e+00  wlte=0.000732  wltea=   -1 wlter=   -1
100 TS dt 1. time 97.7179
100) species-0: charge density= -1.6023053677413e+01 z-momentum=  1.0614774022604e-18 energy=  2.4016809214716e+04
100) species-1: charge density=  1.6019692146204e+01 z-momentum=  2.1063403647957e-17 energy=  1.2011909333904e+04
100) species-2: charge density=  3.2061689192317e-06 z-momentum= -3.5013067940664e-24 energy=  2.4032208001537e-03
100) species-3: charge density=  4.8092533788475e-06 z-momentum= -6.2959909742962e-24 energy=  2.4022722444599e-03
100) species-4: charge density=  6.4123378384633e-06 z-momentum= -4.7321210968681e-24 energy=  2.3999997559521e-03
100) species-5: charge density=  8.0154222980792e-06 z-momentum= -4.0384120098071e-24 energy=  2.3944893590855e-03
100) species-6: charge density=  9.6185067576950e-06 z-momentum= -1.4844228362733e-23 energy=  2.3837781964847e-03
100) species-7: charge density=  1.1221591217311e-05 z-momentum=  5.0702207069915e-24 energy=  2.3669965046342e-03
100) species-8: charge density=  1.2824675676927e-05 z-momentum= -2.9072746136033e-23 energy=  2.3485316657975e-03
100) species-9: charge density=  1.4427760136543e-05 z-momentum= -3.5888223022588e-23 energy=  2.3545442949201e-03
	100) Total: charge density= -3.2909954924699e-03, momentum=  2.2124787747410e-17, energy=  3.6028737602453e+04 (m_i[0]/m_e = 14683.8, 80 cells)
testSpitzer:  100) time= 9.7718e+01 n_e=  1.000e+00 E=  0.000e+00 J=  1.977e-07 J_re=  4.016e-08 20.3 % Te_kev=  1.020e+00 Z_eff=2. E/J to eta ratio=0. (diff=0.) constant E normal
 ***** [0] ERROR max |x| =  6.467471676530261e+05, my |x| =  6.467471676530234e+05 diff=2.677552e-09
 ***** [2] ERROR max |x| =  6.467471676530261e+05, my |x| =  6.467471676530238e+05 diff=2.211891e-09
 ***** [3] ERROR max |x| =  6.467471676530261e+05, my |x| =  6.467471676530242e+05 diff=1.862645e-09
 ***** [1] ERROR max |x| =  6.467471676530261e+05, my |x| =  6.467471676530247e+05 diff=1.396984e-09
 ***** [4] ERROR max |x| =  6.467471676530261e+05, my |x| =  6.467471676530227e+05 diff=3.376044e-09
************************************************************************************************************************
***             WIDEN YOUR WINDOW TO 120 CHARACTERS.  Use 'enscript -r -fCourier9' to print this document            ***
************************************************************************************************************************

---------------------------------------------- PETSc Performance Summary: ----------------------------------------------

../ex2-11 on a arch-summit-opt-gnu-cuda11 named h09n13 with 6 processors, by adams Fri Apr  2 12:39:01 2021
Using Petsc Development GIT revision: v3.15.0-30-g403fb01  GIT Date: 2021-04-02 08:06:58 -0400

                         Max       Max/Min     Avg       Total
Time (sec):           1.759e+01     1.000   1.759e+01
Objects:              1.450e+05     1.000   1.450e+05
Flop:                 2.716e+12     1.000   2.716e+12  1.629e+13
Flop/sec:             1.544e+11     1.000   1.544e+11  9.264e+11
MPI Messages:         0.000e+00     0.000   0.000e+00  0.000e+00
MPI Message Lengths:  0.000e+00     0.000   0.000e+00  0.000e+00
MPI Reductions:       2.300e+01     1.000

Flop counting convention: 1 flop = 1 real number operation of type (multiply/divide/add/subtract)
                            e.g., VecAXPY() for real vectors of length N --> 2N flop
                            and VecAXPY() for complex vectors of length N --> 8N flop

Summary of Stages:   ----- Time ------  ----- Flop ------  --- Messages ---  -- Message Lengths --  -- Reductions --
                        Avg     %Total     Avg     %Total    Count   %Total     Avg         %Total    Count   %Total
 0:      Main Stage: 7.6785e-01   4.4%  6.9877e+07   0.0%  0.000e+00   0.0%  0.000e+00        0.0%  2.000e+00   8.7%
 1:          Warmup: 4.3879e+00  25.0%  1.3849e+11   0.8%  0.000e+00   0.0%  0.000e+00        0.0%  1.000e+00   4.3%
 2:           Solve: 1.2431e+01  70.7%  1.6155e+13  99.1%  0.000e+00   0.0%  0.000e+00        0.0%  1.000e+00   4.3%

------------------------------------------------------------------------------------------------------------------------
See the 'Profiling' chapter of the users' manual for details on interpreting output.
Phase summary info:
   Count: number of times phase was executed
   Time and Flop: Max - maximum over all processors
                  Ratio - ratio of maximum to minimum over all processors
   Mess: number of messages sent
   AvgLen: average message length (bytes)
   Reduct: number of global reductions
   Global: entire computation
   Stage: stages of a computation. Set stages with PetscLogStagePush() and PetscLogStagePop().
      %T - percent time in this phase         %F - percent flop in this phase
      %M - percent messages in this phase     %L - percent message lengths in this phase
      %R - percent reductions in this phase
   Total Mflop/s: 10e-6 * (sum of flop over all processors)/(max time over all processors)
   GPU Mflop/s: 10e-6 * (sum of flop on GPU over all processors)/(max GPU time over all processors)
   CpuToGpu Count: total number of CPU to GPU copies per processor
   CpuToGpu Size (Mbytes): 10e-6 * (total size of CPU to GPU copies per processor)
   GpuToCpu Count: total number of GPU to CPU copies per processor
   GpuToCpu Size (Mbytes): 10e-6 * (total size of GPU to CPU copies per processor)
   GPU %F: percent flops on GPU in this event
------------------------------------------------------------------------------------------------------------------------
Event                Count      Time (sec)     Flop                              --- Global ---  --- Stage ----  Total   GPU    - CpuToGpu -   - GpuToCpu - GPU
                   Max Ratio  Max     Ratio   Max  Ratio  Mess   AvgLen  Reduct  %T %F %M %L %R  %T %F %M %L %R Mflop/s Mflop/s Count   Size   Count   Size  %F
---------------------------------------------------------------------------------------------------------------------------------------------------------------

--- Event Stage 0: Main Stage

BuildTwoSided         57 1.0 1.1529e-04 1.1 0.00e+00 0.0 0.0e+00 0.0e+00 0.0e+00  0  0  0  0  0   0  0  0  0  0     0       0      0 0.00e+00    0 0.00e+00  0
MatMult            23490 1.0 3.7638e-03 1.0 1.63e+05 1.0 0.0e+00 0.0e+00 0.0e+00  0  0  0  0  0   0  1  0  0  0   260       0      0 0.00e+00    0 0.00e+00  0
MatLUFactor          140 1.0 1.0828e-03 1.1 3.82e+05 1.0 0.0e+00 0.0e+00 0.0e+00  0  0  0  0  0   0  3  0  0  0  2118       0      0 0.00e+00    0 0.00e+00  0
MatCopy              560 1.0 7.6052e-04 1.0 0.00e+00 0.0 0.0e+00 0.0e+00 0.0e+00  0  0  0  0  0   0  0  0  0  0     0       0      0 0.00e+00    0 0.00e+00  0
MatConvert           280 1.0 4.4663e-03 1.1 0.00e+00 0.0 0.0e+00 0.0e+00 0.0e+00  0  0  0  0  0   1  0  0  0  0     0       0      0 0.00e+00    0 0.00e+00  0
MatAssemblyBegin    1654 1.0 1.8044e-04 1.0 0.00e+00 0.0 0.0e+00 0.0e+00 0.0e+00  0  0  0  0  0   0  0  0  0  0     0       0      0 0.00e+00    0 0.00e+00  0
MatAssemblyEnd      1654 1.0 1.7662e-03 1.2 0.00e+00 0.0 0.0e+00 0.0e+00 0.0e+00  0  0  0  0  0   0  0  0  0  0     0       0      0 0.00e+00    0 0.00e+00  0
MatGetRowIJ           15 1.0 3.3880e-06 1.3 0.00e+00 0.0 0.0e+00 0.0e+00 0.0e+00  0  0  0  0  0   0  0  0  0  0     0       0      0 0.00e+00    0 0.00e+00  0
MatZeroEntries         1 1.0 1.3020e-03 1.2 0.00e+00 0.0 0.0e+00 0.0e+00 0.0e+00  0  0  0  0  0   0  0  0  0  0     0       0      0 0.00e+00    0 0.00e+00  0
MatMatSolve          560 1.0 6.3423e-03 1.0 4.44e+06 1.0 0.0e+00 0.0e+00 0.0e+00  0  0  0  0  0   1 38  0  0  0  4204       0      0 0.00e+00    0 0.00e+00  0
DMConvert             56 1.0 5.4904e-03 1.1 0.00e+00 0.0 0.0e+00 0.0e+00 0.0e+00  0  0  0  0  0   1  0  0  0  0     0       0      0 0.00e+00    0 0.00e+00  0
DMCreateMat            2 1.0 3.0817e-01 1.1 0.00e+00 0.0 0.0e+00 0.0e+00 0.0e+00  2  0  0  0  0  39  0  0  0  0     0       0      0 0.00e+00    0 0.00e+00  0
DMPlexInterp         145 1.0 3.5259e-03 1.1 0.00e+00 0.0 0.0e+00 0.0e+00 0.0e+00  0  0  0  0  0   0  0  0  0  0     0       0      0 0.00e+00    0 0.00e+00  0
DMPlexStratify       227 1.0 7.0818e-03 1.1 0.00e+00 0.0 0.0e+00 0.0e+00 0.0e+00  0  0  0  0  0   1  0  0  0  0     0       0      0 0.00e+00    0 0.00e+00  0
DMPlexSymmetrize     227 1.0 3.8007e-04 1.0 0.00e+00 0.0 0.0e+00 0.0e+00 0.0e+00  0  0  0  0  0   0  0  0  0  0     0       0      0 0.00e+00    0 0.00e+00  0
DMPlexPrealloc         2 1.0 4.1954e-02 1.0 0.00e+00 0.0 0.0e+00 0.0e+00 0.0e+00  0  0  0  0  0   5  0  0  0  0     0       0      0 0.00e+00    0 0.00e+00  0
DMPlexJacobianFE       1 1.0 1.9045e-01 1.0 3.67e+06 1.0 0.0e+00 0.0e+00 0.0e+00  1  0  0  0  0  25 32  0  0  0   116       0      0 0.00e+00    0 0.00e+00  0
SFSetGraph            75 1.0 1.0600e-04 1.0 0.00e+00 0.0 0.0e+00 0.0e+00 0.0e+00  0  0  0  0  0   0  0  0  0  0     0       0      0 0.00e+00    0 0.00e+00  0
SFSetUp               57 1.0 5.0605e-04 1.1 0.00e+00 0.0 0.0e+00 0.0e+00 0.0e+00  0  0  0  0  0   0  0  0  0  0     0       0      0 0.00e+00    0 0.00e+00  0
SFBcastBegin         120 1.0 5.1677e-04 1.2 0.00e+00 0.0 0.0e+00 0.0e+00 0.0e+00  0  0  0  0  0   0  0  0  0  0     0       0      0 0.00e+00    0 0.00e+00  0
SFBcastEnd           120 1.0 6.9215e-05 1.2 0.00e+00 0.0 0.0e+00 0.0e+00 0.0e+00  0  0  0  0  0   0  0  0  0  0     0       0      0 0.00e+00    0 0.00e+00  0
SFReduceBegin        117 1.0 4.2813e-04 1.2 0.00e+00 0.0 0.0e+00 0.0e+00 0.0e+00  0  0  0  0  0   0  0  0  0  0     0       0      0 0.00e+00    0 0.00e+00  0
SFReduceEnd          117 1.0 6.1060e-05 1.2 0.00e+00 0.0 0.0e+00 0.0e+00 0.0e+00  0  0  0  0  0   0  0  0  0  0     0       0      0 0.00e+00    0 0.00e+00  0
SFCreateEmbed          4 1.0 1.0287e-04 1.5 0.00e+00 0.0 0.0e+00 0.0e+00 0.0e+00  0  0  0  0  0   0  0  0  0  0     0       0      0 0.00e+00    0 0.00e+00  0
SFSectionSF            4 1.0 4.4804e-05 1.6 0.00e+00 0.0 0.0e+00 0.0e+00 0.0e+00  0  0  0  0  0   0  0  0  0  0     0       0      0 0.00e+00    0 0.00e+00  0
SFRemoteOff            4 1.0 2.8436e-04 1.2 0.00e+00 0.0 0.0e+00 0.0e+00 0.0e+00  0  0  0  0  0   0  0  0  0  0     0       0      0 0.00e+00    0 0.00e+00  0
SFPack               237 1.0 3.2035e-05 1.1 0.00e+00 0.0 0.0e+00 0.0e+00 0.0e+00  0  0  0  0  0   0  0  0  0  0     0       0      0 0.00e+00    0 0.00e+00  0
SFUnpack             237 1.0 2.6319e-05 1.1 0.00e+00 0.0 0.0e+00 0.0e+00 0.0e+00  0  0  0  0  0   0  0  0  0  0     0       0      0 0.00e+00    0 0.00e+00  0
VecSet               324 1.0 1.0237e-03 1.1 0.00e+00 0.0 0.0e+00 0.0e+00 0.0e+00  0  0  0  0  0   0  0  0  0  0     0       0      0 0.00e+00    0 0.00e+00  0
VecCUDACopyFrom       14 1.0 3.2969e-04 1.0 0.00e+00 0.0 0.0e+00 0.0e+00 0.0e+00  0  0  0  0  0   0  0  0  0  0     0       0      0 0.00e+00   14 4.15e-01  0
DualSpaceSetUp        25 1.0 3.5441e-02 1.1 9.20e+02 1.0 0.0e+00 0.0e+00 0.0e+00  0  0  0  0  0   4  0  0  0  0     0       0      0 0.00e+00    0 0.00e+00  0
FESetUp               49 1.0 9.4661e-04 1.1 0.00e+00 0.0 0.0e+00 0.0e+00 0.0e+00  0  0  0  0  0   0  0  0  0  0     0       0      0 0.00e+00    0 0.00e+00  0

--- Event Stage 1: Warmup

BuildTwoSided          1 1.0 1.9886e-05 8.2 0.00e+00 0.0 0.0e+00 0.0e+00 0.0e+00  0  0  0  0  0   0  0  0  0  0     0       0      0 0.00e+00    0 0.00e+00  0
MatMult              130 1.0 5.6564e-03 1.2 1.20e+07 1.0 0.0e+00 0.0e+00 0.0e+00  0  0  0  0  0   0  0  0  0  0 12744   75113      1 2.07e+00   33 2.49e+00 86
MatMultAdd            17 1.0 1.4757e-03 1.1 5.80e+06 1.0 0.0e+00 0.0e+00 0.0e+00  0  0  0  0  0   0  0  0  0  0 23566   83522      1 2.07e+00    0 0.00e+00 100
MatSolve              14 1.0 1.7781e-02 1.0 3.18e+07 1.0 0.0e+00 0.0e+00 0.0e+00  0  0  0  0  0   0  0  0  0  0 10731   10739      0 0.00e+00    0 0.00e+00 100
MatLUFactorSym         1 1.0 1.5716e-03 1.1 0.00e+00 0.0 0.0e+00 0.0e+00 0.0e+00  0  0  0  0  0   0  0  0  0  0     0       0      2 5.62e-02    0 0.00e+00  0
MatLUFactorNum        14 1.0 3.1110e-02 1.0 1.23e+09 1.0 0.0e+00 0.0e+00 0.0e+00  0  0  0  0  0   1  5  0  0  0 236454   237648      0 0.00e+00    0 0.00e+00 100
MatAssemblyBegin      73 1.0 1.8420e-05 1.9 0.00e+00 0.0 0.0e+00 0.0e+00 0.0e+00  0  0  0  0  0   0  0  0  0  0     0       0      0 0.00e+00    0 0.00e+00  0
MatAssemblyEnd        73 1.0 1.0254e-03 1.1 0.00e+00 0.0 0.0e+00 0.0e+00 0.0e+00  0  0  0  0  0   0  0  0  0  0     0       0      0 0.00e+00    0 0.00e+00  0
MatGetRowIJ            1 1.0 2.6019e-04 1.7 0.00e+00 0.0 0.0e+00 0.0e+00 0.0e+00  0  0  0  0  0   0  0  0  0  0     0       0      0 0.00e+00    0 0.00e+00  0
MatGetOrdering         1 1.0 1.6646e-03 1.1 0.00e+00 0.0 0.0e+00 0.0e+00 0.0e+00  0  0  0  0  0   0  0  0  0  0     0       0      0 0.00e+00    0 0.00e+00  0
MatZeroEntries        15 1.0 2.0720e-03 1.6 0.00e+00 0.0 0.0e+00 0.0e+00 0.0e+00  0  0  0  0  0   0  0  0  0  0     0       0      0 0.00e+00    0 0.00e+00  0
MatCUSPARSCopyTo       2 1.0 3.0202e-03 1.4 0.00e+00 0.0 0.0e+00 0.0e+00 0.0e+00  0  0  0  0  0   0  0  0  0  0     0       0      2 4.15e+00    0 0.00e+00  0
DMConvert             33 1.0 2.4467e-03 1.1 0.00e+00 0.0 0.0e+00 0.0e+00 0.0e+00  0  0  0  0  0   0  0  0  0  0     0       0      0 0.00e+00    0 0.00e+00  0
DMPlexInterp          28 1.0 5.7700e-04 1.1 0.00e+00 0.0 0.0e+00 0.0e+00 0.0e+00  0  0  0  0  0   0  0  0  0  0     0       0      0 0.00e+00    0 0.00e+00  0
DMPlexStratify        32 1.0 7.9457e-04 1.1 0.00e+00 0.0 0.0e+00 0.0e+00 0.0e+00  0  0  0  0  0   0  0  0  0  0     0       0      0 0.00e+00    0 0.00e+00  0
DMPlexSymmetrize      32 1.0 2.3516e-05 1.1 0.00e+00 0.0 0.0e+00 0.0e+00 0.0e+00  0  0  0  0  0   0  0  0  0  0     0       0      0 0.00e+00    0 0.00e+00  0
DMPlexIntegralFEM      70 1.0 3.4984e-01 1.0 2.23e+07 1.0 0.0e+00 0.0e+00 0.0e+00  2  0  0  0  0   8  0  0  0  0   383       0      0 0.00e+00    4 3.02e-01  0
SFSetUp                1 1.0 4.7870e-04 1.1 0.00e+00 0.0 0.0e+00 0.0e+00 0.0e+00  0  0  0  0  0   0  0  0  0  0     0       0      0 0.00e+00    0 0.00e+00  0
SFBcastBegin          99 1.0 4.0084e-03 1.2 0.00e+00 0.0 0.0e+00 0.0e+00 0.0e+00  0  0  0  0  0   0  0  0  0  0     0       0      0 0.00e+00    0 0.00e+00  0
SFBcastEnd            99 1.0 6.2313e-05 1.1 0.00e+00 0.0 0.0e+00 0.0e+00 0.0e+00  0  0  0  0  0   0  0  0  0  0     0       0      0 0.00e+00    0 0.00e+00  0
SFPack               134 1.0 2.5676e-05 1.1 0.00e+00 0.0 0.0e+00 0.0e+00 0.0e+00  0  0  0  0  0   0  0  0  0  0     0       0      0 0.00e+00    0 0.00e+00  0
SFUnpack             134 1.0 3.1871e-04 1.2 0.00e+00 0.0 0.0e+00 0.0e+00 0.0e+00  0  0  0  0  0   0  0  0  0  0     0       0      0 0.00e+00    0 0.00e+00  0
Landau Operator       31 1.0 3.9591e+00 1.1 2.18e+10 1.0 0.0e+00 0.0e+00 0.0e+00 22  1  0  0  0  88 94  0  0  0 33029   7304198     17 5.28e+00   44 2.19e+00 100
Landau Jacobian       17 1.0 3.9510e+00 1.1 1.89e+10 1.0 0.0e+00 0.0e+00 0.0e+00 22  1  0  0  0  88 82  0  0  0 28637   8582829     17 5.28e+00   30 1.13e+00 100
Landau Mass           14 1.0 8.2138e-03 1.0 2.94e+09 1.0 0.0e+00 0.0e+00 0.0e+00  0  0  0  0  0   0 13  0  0  0 2144861   3717953      0 0.00e+00   14 1.06e+00 100
 Preamble             29 1.0 8.8017e-03 1.2 4.87e+05 1.0 0.0e+00 0.0e+00 0.0e+00  0  0  0  0  0   0  0  0  0  0   332       0      0 0.00e+00   29 2.19e+00  0
 static IP Data        1 1.0 1.5657e-03 1.3 1.02e+04 1.0 0.0e+00 0.0e+00 0.0e+00  0  0  0  0  0   0  0  0  0  0    39       0      0 0.00e+00    0 0.00e+00  0
 dynamic IP-Jac       30 1.0 8.0240e-03 1.1 2.83e+05 1.0 0.0e+00 0.0e+00 0.0e+00  0  0  0  0  0   0  0  0  0  0   212    1512     15 1.13e+00   15 1.20e-04 100
 Kernel-init          29 1.0 1.2048e-03 1.4 0.00e+00 0.0 0.0e+00 0.0e+00 0.0e+00  0  0  0  0  0   0  0  0  0  0     0       0      0 0.00e+00    0 0.00e+00  0
 Jac-f-df (GPU)       15 1.0 5.0600e-04 1.1 1.84e+06 1.0 0.0e+00 0.0e+00 0.0e+00  0  0  0  0  0   0  0  0  0  0 21856   22065      0 0.00e+00    0 0.00e+00 100
 Kernel (GPU)         29 1.0 1.4383e-02 1.0 2.18e+10 1.0 0.0e+00 0.0e+00 0.0e+00  0  1  0  0  0   0 94  0  0  0 9085664   9090674      0 0.00e+00    0 0.00e+00 100
 Copy to CPU           1 1.0 2.2596e-03 1.2 0.00e+00 0.0 0.0e+00 0.0e+00 0.0e+00  0  0  0  0  0   0  0  0  0  0     0       0      0 0.00e+00    0 0.00e+00  0
 Jac-assemble          1 1.0 5.1736e-02 1.1 2.24e+05 1.0 0.0e+00 0.0e+00 0.0e+00  0  0  0  0  0   1  0  0  0  0    26       0      0 0.00e+00    0 0.00e+00  0
 Jac asmbl setup       1 1.0 3.8680e+00 1.1 0.00e+00 0.0 0.0e+00 0.0e+00 0.0e+00 22  0  0  0  0  86  0  0  0  0     0       0      0 0.00e+00    0 0.00e+00  0
VecDot                14 1.0 6.4501e-04 1.1 1.97e+05 1.0 0.0e+00 0.0e+00 0.0e+00  0  0  0  0  0   0  0  0  0  0  1831    1855      0 0.00e+00   14 1.12e-04 100
VecNorm               47 1.0 3.8273e-03 1.1 7.33e+05 1.0 0.0e+00 0.0e+00 0.0e+00  0  0  0  0  0   0  0  0  0  0  1149    1266     15 1.13e+00   47 3.76e-04 100
VecScale              14 1.0 2.2530e-06 1.4 0.00e+00 0.0 0.0e+00 0.0e+00 0.0e+00  0  0  0  0  0   0  0  0  0  0     0       0      0 0.00e+00    0 0.00e+00  0
VecCopy               36 1.0 6.3167e-04 1.1 0.00e+00 0.0 0.0e+00 0.0e+00 0.0e+00  0  0  0  0  0   0  0  0  0  0     0       0      0 0.00e+00    0 0.00e+00  0
VecSet               228 1.0 2.0176e-03 1.1 0.00e+00 0.0 0.0e+00 0.0e+00 0.0e+00  0  0  0  0  0   0  0  0  0  0     0       0      0 0.00e+00    0 0.00e+00  0
VecAXPBYCZ            20 1.0 1.3086e-03 1.1 1.27e+06 1.0 0.0e+00 0.0e+00 0.0e+00  0  0  0  0  0   0  0  0  0  0  5802    7223     43 1.69e-01    0 0.00e+00 100
VecWAXPY              14 1.0 4.1554e-04 1.1 1.97e+05 1.0 0.0e+00 0.0e+00 0.0e+00  0  0  0  0  0   0  0  0  0  0  2842    2907     14 1.12e-04    0 0.00e+00 100
VecMAXPY               6 1.0 2.0506e-04 1.1 2.25e+05 1.0 0.0e+00 0.0e+00 0.0e+00  0  0  0  0  0   0  0  0  0  0  6582    6657      8 1.13e-01    0 0.00e+00 100
VecReduceArith        28 1.0 2.0205e-03 1.1 3.94e+05 1.0 0.0e+00 0.0e+00 0.0e+00  0  0  0  0  0   0  0  0  0  0  1169    1177      0 0.00e+00   28 2.24e-04 100
VecReduceComm         14 1.0 3.4200e-06 1.2 0.00e+00 0.0 0.0e+00 0.0e+00 0.0e+00  0  0  0  0  0   0  0  0  0  0     0       0      0 0.00e+00    0 0.00e+00  0
VecCUDACopyTo         20 1.0 4.4928e-04 1.1 0.00e+00 0.0 0.0e+00 0.0e+00 0.0e+00  0  0  0  0  0   0  0  0  0  0     0       0     20 1.41e+00    0 0.00e+00  0
VecCUDACopyFrom       35 1.0 7.3581e-04 1.1 0.00e+00 0.0 0.0e+00 0.0e+00 0.0e+00  0  0  0  0  0   0  0  0  0  0     0       0      0 0.00e+00   35 2.60e+00  0
DualSpaceSetUp         4 1.0 6.8824e-03 1.1 9.60e+01 1.0 0.0e+00 0.0e+00 0.0e+00  0  0  0  0  0   0  0  0  0  0     0       0      0 0.00e+00    0 0.00e+00  0
FESetUp                4 1.0 1.1272e-04 1.6 0.00e+00 0.0 0.0e+00 0.0e+00 0.0e+00  0  0  0  0  0   0  0  0  0  0     0       0      0 0.00e+00    0 0.00e+00  0
TSStep                 1 1.0 4.0187e+00 1.1 2.31e+10 1.0 0.0e+00 0.0e+00 0.0e+00 22  1  0  0  0  90100  0  0  0 34428   1863250     84 5.62e+00  119 2.30e+00 100
TSFunctionEval        20 1.0 3.9511e+00 1.1 1.89e+10 1.0 0.0e+00 0.0e+00 0.0e+00 22  1  0  0  0  88 82  0  0  0 28637   8548989     17 5.28e+00   30 1.13e+00 100
TSJacobianEval        14 1.0 8.2277e-03 1.0 2.94e+09 1.0 0.0e+00 0.0e+00 0.0e+00  0  0  0  0  0   0 13  0  0  0 2141253   3717953      0 0.00e+00   14 1.06e+00 100
KSPSetUp              14 1.0 6.0190e-06 2.0 0.00e+00 0.0 0.0e+00 0.0e+00 0.0e+00  0  0  0  0  0   0  0  0  0  0     0       0      0 0.00e+00    0 0.00e+00  0
KSPSolve              14 1.0 1.8116e-02 1.0 3.18e+07 1.0 0.0e+00 0.0e+00 0.0e+00  0  0  0  0  0   0  0  0  0  0 10532   10580      0 0.00e+00    0 0.00e+00 100
SNESSolve              3 1.0 4.0179e+00 1.1 2.31e+10 1.0 0.0e+00 0.0e+00 0.0e+00 22  1  0  0  0  90100  0  0  0 34434   1876323     70 5.50e+00  117 2.19e+00 100
SNESSetUp              1 1.0 7.2425e-05 1.2 0.00e+00 0.0 0.0e+00 0.0e+00 0.0e+00  0  0  0  0  0   0  0  0  0  0     0       0      0 0.00e+00    0 0.00e+00  0
SNESFunctionEval      17 1.0 3.9522e+00 1.1 1.89e+10 1.0 0.0e+00 0.0e+00 0.0e+00 22  1  0  0  0  88 82  0  0  0 28631   8053677     54 5.45e+00   30 1.13e+00 100
SNESJacobianEval      14 1.0 8.2457e-03 1.0 2.94e+09 1.0 0.0e+00 0.0e+00 0.0e+00  0  0  0  0  0   0 13  0  0  0 2136557   3717953      0 0.00e+00   14 1.06e+00 100
SNESLineSearch        14 1.0 2.8843e-02 1.1 1.76e+10 1.0 0.0e+00 0.0e+00 0.0e+00  0  1  0  0  0   1 76  0  0  0 3662383   5980746     56 1.06e+00   98 1.06e+00 100
PCSetUp               14 1.0 3.4366e-02 1.0 1.23e+09 1.0 0.0e+00 0.0e+00 0.0e+00  0  0  0  0  0   1  5  0  0  0 214047   237648      2 5.62e-02    0 0.00e+00 100
PCApply               14 1.0 1.7789e-02 1.0 3.18e+07 1.0 0.0e+00 0.0e+00 0.0e+00  0  0  0  0  0   0  0  0  0  0 10726   10739      0 0.00e+00    0 0.00e+00 100

--- Event Stage 2: Solve

MatMult             7778 1.0 2.5082e-01 1.1 1.32e+09 1.0 0.0e+00 0.0e+00 0.0e+00  1  0  0  0  0   2  0  0  0  0 31618   87186      0 0.00e+00 3560 2.69e+02 95
MatMultAdd          2028 1.0 4.7117e-02 1.1 6.91e+08 1.0 0.0e+00 0.0e+00 0.0e+00  0  0  0  0  0   0  0  0  0  0 88048   90283      0 0.00e+00    0 0.00e+00 100
MatSolve            1728 1.0 1.9356e+00 1.0 3.93e+09 1.0 0.0e+00 0.0e+00 0.0e+00 11  0  0  0  0  15  0  0  0  0 12167   12176      0 0.00e+00    0 0.00e+00 100
MatLUFactorNum      1728 1.0 3.1014e+00 1.0 1.51e+11 1.0 0.0e+00 0.0e+00 0.0e+00 18  6  0  0  0  25  6  0  0  0 292748   294334      0 0.00e+00    0 0.00e+00 100
MatAssemblyBegin    4590 1.0 6.5036e-04 1.1 0.00e+00 0.0 0.0e+00 0.0e+00 0.0e+00  0  0  0  0  0   0  0  0  0  0     0       0      0 0.00e+00    0 0.00e+00  0
MatAssemblyEnd      4590 1.0 2.2211e-03 1.1 0.00e+00 0.0 0.0e+00 0.0e+00 0.0e+00  0  0  0  0  0   0  0  0  0  0     0       0      0 0.00e+00    0 0.00e+00  0
MatZeroEntries      1729 1.0 6.5994e-02 1.1 0.00e+00 0.0 0.0e+00 0.0e+00 0.0e+00  0  0  0  0  0   1  0  0  0  0     0       0      0 0.00e+00    0 0.00e+00  0
DMConvert           3560 1.0 2.5210e-01 1.1 0.00e+00 0.0 0.0e+00 0.0e+00 0.0e+00  1  0  0  0  0   2  0  0  0  0     0       0      0 0.00e+00    0 0.00e+00  0
DMPlexInterp         721 1.0 1.5177e-02 1.2 0.00e+00 0.0 0.0e+00 0.0e+00 0.0e+00  0  0  0  0  0   0  0  0  0  0     0       0      0 0.00e+00    0 0.00e+00  0
DMPlexStratify       824 1.0 2.1557e-02 1.2 0.00e+00 0.0 0.0e+00 0.0e+00 0.0e+00  0  0  0  0  0   0  0  0  0  0     0       0      0 0.00e+00    0 0.00e+00  0
DMPlexSymmetrize     824 1.0 6.2941e-04 1.1 0.00e+00 0.0 0.0e+00 0.0e+00 0.0e+00  0  0  0  0  0   0  0  0  0  0     0       0      0 0.00e+00    0 0.00e+00  0
DMPlexIntegralFEM     565 1.0 2.9801e+00 1.0 1.80e+08 1.0 0.0e+00 0.0e+00 0.0e+00 17  0  0  0  0  24  0  0  0  0   363       0      0 0.00e+00  103 7.77e+00  0
SFBcastBegin        4022 1.0 4.8863e-02 1.2 0.00e+00 0.0 0.0e+00 0.0e+00 0.0e+00  0  0  0  0  0   0  0  0  0  0     0       0      0 0.00e+00    0 0.00e+00  0
SFBcastEnd          4022 1.0 2.6264e-03 1.2 0.00e+00 0.0 0.0e+00 0.0e+00 0.0e+00  0  0  0  0  0   0  0  0  0  0     0       0      0 0.00e+00    0 0.00e+00  0
SFPack              4453 1.0 6.0085e-04 1.1 0.00e+00 0.0 0.0e+00 0.0e+00 0.0e+00  0  0  0  0  0   0  0  0  0  0     0       0      0 0.00e+00    0 0.00e+00  0
SFUnpack            4453 1.0 3.1208e-03 1.0 0.00e+00 0.0 0.0e+00 0.0e+00 0.0e+00  0  0  0  0  0   0  0  0  0  0     0       0      0 0.00e+00    0 0.00e+00  0
Landau Operator     3756 1.0 3.4019e+00 1.0 2.54e+12 1.0 0.0e+00 0.0e+00 0.0e+00 19 93  0  0  0  27 94  0  0  0 4472976   8760414   1729 1.30e+02 5186 2.61e+02 100
Landau Jacobian     2028 1.0 2.4760e+00 1.0 2.17e+12 1.0 0.0e+00 0.0e+00 0.0e+00 14 80  0  0  0  20 81  0  0  0 5267349   10681617   1729 1.30e+02 3458 1.30e+02 100
Landau Mass         1728 1.0 9.2497e-01 1.0 3.62e+11 1.0 0.0e+00 0.0e+00 0.0e+00  5 13  0  0  0   7 13  0  0  0 2350892   4214104      0 0.00e+00 1728 1.30e+02 100
 Preamble           3457 1.0 8.3833e-01 1.1 5.81e+07 1.0 0.0e+00 0.0e+00 0.0e+00  5  0  0  0  0   7  0  0  0  0   416       0      0 0.00e+00 3457 2.61e+02  0
 dynamic IP-Jac     3458 1.0 8.8602e-01 1.0 3.26e+07 1.0 0.0e+00 0.0e+00 0.0e+00  5  0  0  0  0   7  0  0  0  0   221    1650   1729 1.30e+02 1729 1.38e-02 100
 Kernel-init        3457 1.0 5.4766e-03 1.2 0.00e+00 0.0 0.0e+00 0.0e+00 0.0e+00  0  0  0  0  0   0  0  0  0  0     0       0      0 0.00e+00    0 0.00e+00  0
 Jac-f-df (GPU)     1729 1.0 5.3543e-02 1.1 2.12e+08 1.0 0.0e+00 0.0e+00 0.0e+00  0  0  0  0  0   0  0  0  0  0 23808   24024      0 0.00e+00    0 0.00e+00 100
 Kernel (GPU)       3457 1.0 1.3484e+00 1.0 2.53e+12 1.0 0.0e+00 0.0e+00 0.0e+00  8 93  0  0  0  11 94  0  0  0 11277351   11283730      0 0.00e+00    0 0.00e+00 100
VecDot              1728 1.0 7.3813e-02 1.1 2.43e+07 1.0 0.0e+00 0.0e+00 0.0e+00  0  0  0  0  0   1  0  0  0  0  1975    2001      0 0.00e+00 1728 1.38e-02 100
VecNorm             5486 1.0 4.1180e-01 1.1 8.54e+07 1.0 0.0e+00 0.0e+00 0.0e+00  2  0  0  0  0   3  0  0  0  0  1245    1380   1729 1.30e+02 5486 4.39e-02 100
VecScale            1728 1.0 2.2579e-04 1.1 0.00e+00 0.0 0.0e+00 0.0e+00 0.0e+00  0  0  0  0  0   0  0  0  0  0     0       0      0 0.00e+00    0 0.00e+00  0
VecCopy             4156 1.0 8.0229e-02 1.1 0.00e+00 0.0 0.0e+00 0.0e+00 0.0e+00  0  0  0  0  0   1  0  0  0  0     0       0      0 0.00e+00    2 1.12e-01  0
VecSet             13891 1.0 1.7148e-01 1.1 0.00e+00 0.0 0.0e+00 0.0e+00 0.0e+00  1  0  0  0  0   1  0  0  0  0     0       0      0 0.00e+00    0 0.00e+00  0
VecAXPBYCZ          2328 1.0 1.4318e-01 1.2 1.47e+08 1.0 0.0e+00 0.0e+00 0.0e+00  1  0  0  0  0   1  0  0  0  0  6173    7194   4659 2.06e-01    0 0.00e+00 100
VecWAXPY            1728 1.0 4.6051e-02 1.1 2.43e+07 1.0 0.0e+00 0.0e+00 0.0e+00  0  0  0  0  0   0  0  0  0  0  3165    3232   1728 1.38e-02    0 0.00e+00 100
VecMAXPY             600 1.0 1.6017e-02 1.2 2.25e+07 1.0 0.0e+00 0.0e+00 0.0e+00  0  0  0  0  0   0  0  0  0  0  8427    8546    602 1.25e-01    0 0.00e+00 100
VecReduceArith      3456 1.0 2.3483e-01 1.1 4.86e+07 1.0 0.0e+00 0.0e+00 0.0e+00  1  0  0  0  0   2  0  0  0  0  1241    1251      0 0.00e+00 3456 2.76e-02 100
VecReduceComm       1728 1.0 3.8877e-04 1.2 0.00e+00 0.0 0.0e+00 0.0e+00 0.0e+00  0  0  0  0  0   0  0  0  0  0     0       0      0 0.00e+00    0 0.00e+00  0
VecCUDACopyTo       1734 1.0 3.7341e-02 1.1 0.00e+00 0.0 0.0e+00 0.0e+00 0.0e+00  0  0  0  0  0   0  0  0  0  0     0       0   1734 1.31e+02    0 0.00e+00  0
VecCUDACopyFrom     3762 1.0 7.5393e-02 1.1 0.00e+00 0.0 0.0e+00 0.0e+00 0.0e+00  0  0  0  0  0   1  0  0  0  0     0       0      0 0.00e+00 3762 2.80e+02  0
DualSpaceSetUp       103 1.0 1.8020e-01 1.1 2.47e+03 1.0 0.0e+00 0.0e+00 0.0e+00  1  0  0  0  0   1  0  0  0  0     0       0      0 0.00e+00    0 0.00e+00  0
FESetUp              103 1.0 2.1085e-03 1.2 0.00e+00 0.0 0.0e+00 0.0e+00 0.0e+00  0  0  0  0  0   0  0  0  0  0     0       0      0 0.00e+00    0 0.00e+00  0
TSStep               100 1.0 9.4178e+00 1.0 2.69e+12 1.0 0.0e+00 0.0e+00 0.0e+00 53 99  0  0  0  75100  0  0  0 1715215   2117394   8718 1.31e+02 14328 2.72e+02 100
TSFunctionEval      2328 1.0 2.4830e+00 1.0 2.17e+12 1.0 0.0e+00 0.0e+00 0.0e+00 14 80  0  0  0  20 81  0  0  0 5252565   10636838   1729 1.30e+02 3458 1.30e+02 100
TSJacobianEval      1728 1.0 9.2626e-01 1.0 3.62e+11 1.0 0.0e+00 0.0e+00 0.0e+00  5 13  0  0  0   7 13  0  0  0 2347620   4214104      0 0.00e+00 1728 1.30e+02 100
KSPSetUp            1728 1.0 3.7288e-04 1.2 0.00e+00 0.0 0.0e+00 0.0e+00 0.0e+00  0  0  0  0  0   0  0  0  0  0     0       0      0 0.00e+00    0 0.00e+00  0
KSPSolve            1728 1.0 1.9706e+00 1.0 3.93e+09 1.0 0.0e+00 0.0e+00 0.0e+00 11  0  0  0  0  16  0  0  0  0 11951   11988      0 0.00e+00    0 0.00e+00 100
SNESSolve            300 1.0 9.3238e+00 1.0 2.69e+12 1.0 0.0e+00 0.0e+00 0.0e+00 52 99  0  0  0  74100  0  0  0 1732477   2133677   7516 1.31e+02 14126 2.61e+02 100
SNESFunctionEval    2028 1.0 2.5962e+00 1.0 2.17e+12 1.0 0.0e+00 0.0e+00 0.0e+00 15 80  0  0  0  21 81  0  0  0 5023843   9880532   5788 1.31e+02 3458 1.30e+02 100
SNESJacobianEval    1728 1.0 9.2777e-01 1.0 3.62e+11 1.0 0.0e+00 0.0e+00 0.0e+00  5 13  0  0  0   7 13  0  0  0 2343805   4214104      0 0.00e+00 1728 1.30e+02 100
SNESLineSearch      1728 1.0 3.2722e+00 1.0 2.17e+12 1.0 0.0e+00 0.0e+00 0.0e+00 18 80  0  0  0  26 81  0  0  0 3984587   6583954   6912 1.30e+02 12096 1.30e+02 100
PCSetUp             1728 1.0 3.1043e+00 1.0 1.51e+11 1.0 0.0e+00 0.0e+00 0.0e+00 18  6  0  0  0  25  6  0  0  0 292481   294334      0 0.00e+00    0 0.00e+00 100
PCApply             1728 1.0 1.9363e+00 1.0 3.93e+09 1.0 0.0e+00 0.0e+00 0.0e+00 11  0  0  0  0  15  0  0  0  0 12163   12176      0 0.00e+00    0 0.00e+00 100
---------------------------------------------------------------------------------------------------------------------------------------------------------------

Memory usage is given in bytes:

Object Type          Creations   Destructions     Memory  Descendants' Mem.
Reports information only for process 0.

--- Event Stage 0: Main Stage

           Container   251            254       148336     0.
    Distributed Mesh   951            951      4949912     0.
            DM Label  2050           2050      1312000     0.
          Quadrature   912            912       547200     0.
              Matrix  1028           1028     60972500     0.
           Index Set  4330           4333      4012456     0.
   IS L to G Mapping     1              1        38400     0.
             Section  2734           2734      1968480     0.
    Section Symmetry   300            300       208800     0.
   Star Forest Graph  1963           1963      2129256     0.
     Discrete System  1195           1195      1080280     0.
           Weak Form  1195           1195       984680     0.
    GraphPartitioner   241            241       167736     0.
              Vector   310            328      2614896     0.
       p4est logging     1              0            0     0.
        Linear Space    49             49        35056     0.
          Dual Space   210            210       198240     0.
            FE Space    49             49        39004     0.
       Field over DM    15             15        10680     0.
             TSAdapt     1              1         1264     0.
                  TS     1              1         2296     0.
                DMTS     1              1          768     0.
                SNES     1              1         1540     0.
              DMSNES     3              3         2040     0.
      SNESLineSearch     1              1         1008     0.
       Krylov Solver     1              1         1600     0.
     DMKSP interface     0              1          664     0.
      Preconditioner     1              1         1016     0.
              Viewer     2              1          848     0.

--- Event Stage 1: Warmup

           Container    35             32        18688     0.
    Distributed Mesh   190            190       968000     0.
            DM Label   525            525       336000     0.
          Quadrature   136            136        81600     0.
              Matrix    76             76       241648     0.
           Index Set   473            470       422176     0.
             Section   220            220       158400     0.
   Star Forest Graph   380            380       410400     0.
     Discrete System   222            222       200688     0.
           Weak Form   222            222       182928     0.
    GraphPartitioner    32             32        22272     0.
              Vector   182            164      4662608     0.
        Linear Space     4              4         2752     0.
          Dual Space    40             40        37760     0.
            FE Space     4              4         3184     0.
       Field over DM     4              4         2848     0.
     DMKSP interface     1              0            0     0.

--- Event Stage 2: Solve

           Container   824            824       481216     0.
    Distributed Mesh 10313          10313     52028576     0.
            DM Label 37911          37911     24263040     0.
          Quadrature  3502           3502      2101200     0.
              Matrix  1957           1957      6222436     0.
           Index Set 10865          10865      9762232     0.
             Section  5665           5665      4078800     0.
   Star Forest Graph 20626          20626     22276080     0.
     Discrete System 11137          11137     10067848     0.
           Weak Form 11137          11137      9176888     0.
    GraphPartitioner   824            824       573504     0.
              Vector  8406           8406    359727264     0.
        Linear Space   103            103        70864     0.
          Dual Space  1030           1030       972320     0.
            FE Space   103            103        81988     0.
       Field over DM   103            103        73336     0.
========================================================================================================================
Average time to get PetscTime(): 4.2e-08
Average time for MPI_Barrier(): 1.1526e-06
Average time for zero size MPI_Send(): 3.41352e-05
#PETSc Option Table entries:
-dm_landau_amr_levels_max 13
-dm_landau_amr_post_refine 0
-dm_landau_amr_re_levels 0
-dm_landau_amr_z_refine1 0
-dm_landau_amr_z_refine2 0
-dm_landau_device_type cuda
-dm_landau_domain_radius 10
-dm_landau_Ez 0
-dm_landau_ion_charges 2,2,3,4,5,6,7,8,9
-dm_landau_ion_masses 8,182,182,182,182,182,182,182,182
-dm_landau_n 1.000003,.5,1e-7,1e-7,1e-7,1e-7,1e-7,1e-7,1e-7,1e-7
-dm_landau_re_radius 10
-dm_landau_thermal_temps 1,1,1,1,1,1,1,1,1,1
-dm_landau_type p4est
-dm_landau_z_radius1 8
-dm_landau_z_radius2 .1
-dm_mat_type aijcusparse
-dm_preallocate_only
-dm_vec_type cuda
-ex2_connor_e_field_units
-ex2_impurity_index 1
-ex2_plot_dt 200
-ex2_test_type spitzer
-ksp_type preonly
-log_view
-mat_no_inode
-pc_factor_mat_ordering_type rcm
-pc_factor_mat_solver_type cusparseband
-pc_type lu
-petscspace_degree 3
-snes_converged_reason
-snes_max_it 15
-snes_rtol 1.e-9
-snes_stol 1.e-9
-ts_adapt_clip .5,1.1
-ts_adapt_dt_max 1.
-ts_adapt_monitor
-ts_adapt_scale_solve_failed 0.5
-ts_adapt_time_step_increase_delay 5
-ts_arkimex_type 1bee
-ts_dt .5
-ts_exact_final_time stepover
-ts_max_snes_failures -1
-ts_max_steps 100
-ts_max_time 300
-ts_monitor
-ts_rtol 1e-2
-ts_type arkimex
#End of PETSc Option Table entries
Compiled without FORTRAN kernels
Compiled with full precision matrices (default)
sizeof(short) 2 sizeof(int) 4 sizeof(long) 8 sizeof(void*) 8 sizeof(PetscScalar) 8 sizeof(PetscInt) 4
Configure options: --with-fc=0 --CFLAGS="-fPIC -g -DLANDAU_MAX_Q=4 -DLANDAU_MAX_SPECIES=10 -DPETSC_HAVE_CUDA_ATOMIC" --CXXFLAGS="-fPIC -g -DLANDAU_MAX_Q=4 -DLANDAU_MAX_SPECIES=10 -DPETSC_HAVE_CUDA_ATOMIC" --CUDAFLAGS="-arch=sm_70 -Xcompiler -rdynamic -lineinfo -g -DLANDAU_MAX_Q=4 -DLANDAU_MAX_SPECIES=10 -DPETSC_HAVE_CUDA_ATOMIC" --COPTFLAGS=-O --CXXOPTFLAGS=-O --CUDAOPTFLAGS=-O3 --with-ctable=0 --with-ssl=0 --with-batch=0 --with-cxx=mpicxx --with-mpiexec="jsrun -g1 --smpiargs "-gpu"" --with-cuda=1 --with-cudac=nvcc --download-p4est=1 --download-zlib --download-metis --download-parmetis --download-hypre --download-triangle --with-blaslapack-lib="-L/autofs/nccs-svm1_sw/summit/.swci/1-compute/opt/spack/20180914/linux-rhel7-ppc64le/gcc-6.4.0/netlib-lapack-3.8.0-wcabdyqhdi5rooxbkqa6x5d7hxyxwdkm/lib64 -lblas -llapack" --with-cc=mpicc --with-shared-libraries=1 --with-x=0 --with-64-bit-indices=0 --with-debugging=0 PETSC_ARCH=arch-summit-opt-gnu-cuda11
-----------------------------------------
Libraries compiled on 2021-04-02 15:36:16 on login2 
Machine characteristics: Linux-4.14.0-115.21.2.el7a.ppc64le-ppc64le-with-redhat-7.6-Maipo
Using PETSc directory: /gpfs/alpine/csc314/scratch/adams/petsc
Using PETSc arch: arch-summit-opt-gnu-cuda11
-----------------------------------------

Using C compiler: mpicc -fPIC -g -DLANDAU_MAX_Q=4 -DLANDAU_MAX_SPECIES=10 -DPETSC_HAVE_CUDA_ATOMIC -O   
-----------------------------------------

Using include paths: -I/gpfs/alpine/csc314/scratch/adams/petsc/include -I/gpfs/alpine/csc314/scratch/adams/petsc/arch-summit-opt-gnu-cuda11/include -I/sw/summit/cuda/11.2.0/include
-----------------------------------------

Using C linker: mpicc
Using libraries: -Wl,-rpath,/gpfs/alpine/csc314/scratch/adams/petsc/arch-summit-opt-gnu-cuda11/lib -L/gpfs/alpine/csc314/scratch/adams/petsc/arch-summit-opt-gnu-cuda11/lib -lpetsc -Wl,-rpath,/gpfs/alpine/csc314/scratch/adams/petsc/arch-summit-opt-gnu-cuda11/lib -L/gpfs/alpine/csc314/scratch/adams/petsc/arch-summit-opt-gnu-cuda11/lib -L/autofs/nccs-svm1_sw/summit/.swci/1-compute/opt/spack/20180914/linux-rhel7-ppc64le/gcc-6.4.0/netlib-lapack-3.8.0-wcabdyqhdi5rooxbkqa6x5d7hxyxwdkm/lib64 -Wl,-rpath,/sw/summit/cuda/11.2.0/lib64 -L/sw/summit/cuda/11.2.0/lib64 -lHYPRE -lp4est -lsc -lblas -llapack -lparmetis -lmetis -ltriangle -lm -lz -lcufft -lcublas -lcudart -lcusparse -lcusolver -lcurand -lstdc++ -ldl
-----------------------------------------

